G04 #@! TF.FileFunction,Legend,Top*
%FSLAX46Y46*%
G04 Gerber Fmt 4.6, Leading zero omitted, Abs format (unit mm)*
G04 Created by KiCad (PCBNEW 4.0.2+dfsg1-stable) date Paz 01 Nis 2018 15:05:40 +03*
%MOMM*%
G01*
G04 APERTURE LIST*
%ADD10C,0.100000*%
%ADD11C,0.150000*%
%ADD12C,0.200000*%
%ADD13C,0.170000*%
%ADD14C,0.010000*%
%ADD15C,0.600000*%
G04 APERTURE END LIST*
D10*
D11*
X14097000Y10541000D02*
X14097000Y10414000D01*
X14097000Y12700000D02*
X14097000Y10541000D01*
D10*
X14525716Y11537143D02*
X14644763Y11203810D01*
X14763811Y11537143D01*
X15216191Y11203810D02*
X14930477Y11203810D01*
X15073334Y11203810D02*
X15073334Y11703810D01*
X15025715Y11632381D01*
X14978096Y11584762D01*
X14930477Y11560952D01*
X15430477Y11251429D02*
X15454286Y11227619D01*
X15430477Y11203810D01*
X15406667Y11227619D01*
X15430477Y11251429D01*
X15430477Y11203810D01*
X15763810Y11703810D02*
X15811429Y11703810D01*
X15859048Y11680000D01*
X15882857Y11656190D01*
X15906667Y11608571D01*
X15930476Y11513333D01*
X15930476Y11394286D01*
X15906667Y11299048D01*
X15882857Y11251429D01*
X15859048Y11227619D01*
X15811429Y11203810D01*
X15763810Y11203810D01*
X15716191Y11227619D01*
X15692381Y11251429D01*
X15668572Y11299048D01*
X15644762Y11394286D01*
X15644762Y11513333D01*
X15668572Y11608571D01*
X15692381Y11656190D01*
X15716191Y11680000D01*
X15763810Y11703810D01*
D11*
X4699000Y10414000D02*
X4699000Y6985000D01*
X9271000Y6985000D02*
X7874000Y6985000D01*
X9271000Y10414000D02*
X8001000Y10414000D01*
X12700000Y7366000D02*
X12700000Y6985000D01*
X16256000Y10414000D02*
X16256000Y6985000D01*
X9194800Y10414000D02*
X9194800Y6985000D01*
X508000Y6972300D02*
X1016000Y6972300D01*
X508000Y10414000D02*
X508000Y6985000D01*
X7874000Y6985000D02*
X8128000Y6985000D01*
X7950200Y10414000D02*
X7950200Y6985000D01*
X508000Y12700000D02*
X889000Y12700000D01*
X508000Y10414000D02*
X508000Y12700000D01*
X16256000Y12700000D02*
X15748000Y12700000D01*
X16256000Y10350500D02*
X16256000Y12700000D01*
X15557500Y34290000D02*
X11874500Y34290000D01*
X15557500Y36830000D02*
X15557500Y34290000D01*
X11938000Y34290000D02*
X11938000Y36830000D01*
X8636000Y34290000D02*
X11938000Y34290000D01*
X8636000Y36830000D02*
X8636000Y34290000D01*
X4064000Y36830000D02*
X4064000Y34290000D01*
X7620000Y34290000D02*
X7620000Y36830000D01*
X508000Y34290000D02*
X7620000Y34290000D01*
X508000Y36830000D02*
X508000Y34290000D01*
D12*
X4727715Y35025857D02*
X4727715Y35925857D01*
X5027715Y35283000D01*
X5327715Y35925857D01*
X5327715Y35025857D01*
X6227714Y35025857D02*
X5713429Y35025857D01*
X5970571Y35025857D02*
X5970571Y35925857D01*
X5884857Y35797286D01*
X5799143Y35711571D01*
X5713429Y35668714D01*
X6570572Y35283000D02*
X6999143Y35283000D01*
X6484857Y35025857D02*
X6784857Y35925857D01*
X7084857Y35025857D01*
X1107429Y35025857D02*
X1107429Y35925857D01*
X1407429Y35283000D01*
X1707429Y35925857D01*
X1707429Y35025857D01*
X2607428Y35025857D02*
X2093143Y35025857D01*
X2350285Y35025857D02*
X2350285Y35925857D01*
X2264571Y35797286D01*
X2178857Y35711571D01*
X2093143Y35668714D01*
X3293143Y35497286D02*
X3421714Y35454429D01*
X3464571Y35411571D01*
X3507428Y35325857D01*
X3507428Y35197286D01*
X3464571Y35111571D01*
X3421714Y35068714D01*
X3336000Y35025857D01*
X2993143Y35025857D01*
X2993143Y35925857D01*
X3293143Y35925857D01*
X3378857Y35883000D01*
X3421714Y35840143D01*
X3464571Y35754429D01*
X3464571Y35668714D01*
X3421714Y35583000D01*
X3378857Y35540143D01*
X3293143Y35497286D01*
X2993143Y35497286D01*
D11*
X12700000Y10414000D02*
X12700000Y7112000D01*
X16256000Y10414000D02*
X9144000Y10414000D01*
D12*
X9743429Y8482857D02*
X9743429Y9382857D01*
X10043429Y8740000D01*
X10343429Y9382857D01*
X10343429Y8482857D01*
X10729143Y9297143D02*
X10772000Y9340000D01*
X10857714Y9382857D01*
X11072000Y9382857D01*
X11157714Y9340000D01*
X11200571Y9297143D01*
X11243428Y9211429D01*
X11243428Y9125714D01*
X11200571Y8997143D01*
X10686285Y8482857D01*
X11243428Y8482857D01*
X11929143Y8954286D02*
X12057714Y8911429D01*
X12100571Y8868571D01*
X12143428Y8782857D01*
X12143428Y8654286D01*
X12100571Y8568571D01*
X12057714Y8525714D01*
X11972000Y8482857D01*
X11629143Y8482857D01*
X11629143Y9382857D01*
X11929143Y9382857D01*
X12014857Y9340000D01*
X12057714Y9297143D01*
X12100571Y9211429D01*
X12100571Y9125714D01*
X12057714Y9040000D01*
X12014857Y8997143D01*
X11929143Y8954286D01*
X11629143Y8954286D01*
D11*
X508000Y10414000D02*
X8128000Y10414000D01*
X44704000Y44196000D02*
X46228000Y44196000D01*
X44704000Y43942000D02*
X44704000Y44196000D01*
X44704000Y41402000D02*
X44704000Y43942000D01*
X46228000Y41402000D02*
X44704000Y41402000D01*
X44704000Y41402000D02*
X46228000Y41402000D01*
X44704000Y41148000D02*
X44704000Y41402000D01*
X44704000Y38862000D02*
X44704000Y41148000D01*
X46228000Y38862000D02*
X44704000Y38862000D01*
X44704000Y38862000D02*
X46228000Y38862000D01*
X44704000Y35814000D02*
X44704000Y38862000D01*
X46228000Y35814000D02*
X44704000Y35814000D01*
X44704000Y35814000D02*
X46228000Y35814000D01*
X44704000Y33528000D02*
X44704000Y35814000D01*
X46228000Y33528000D02*
X44704000Y33528000D01*
X44704000Y32512000D02*
X46228000Y32512000D01*
X44704000Y29972000D02*
X44704000Y32512000D01*
X46228000Y29972000D02*
X44704000Y29972000D01*
X44704000Y29972000D02*
X46228000Y29972000D01*
X44704000Y26924000D02*
X44704000Y29972000D01*
X46228000Y26924000D02*
X44704000Y26924000D01*
D13*
X45320000Y27838477D02*
X45281905Y27762286D01*
X45281905Y27648001D01*
X45320000Y27533715D01*
X45396190Y27457524D01*
X45472381Y27419429D01*
X45624762Y27381334D01*
X45739048Y27381334D01*
X45891429Y27419429D01*
X45967619Y27457524D01*
X46043810Y27533715D01*
X46081905Y27648001D01*
X46081905Y27724191D01*
X46043810Y27838477D01*
X46005714Y27876572D01*
X45739048Y27876572D01*
X45739048Y27724191D01*
X46081905Y28219429D02*
X45281905Y28219429D01*
X46081905Y28676572D01*
X45281905Y28676572D01*
X46081905Y29057524D02*
X45281905Y29057524D01*
X45281905Y29248000D01*
X45320000Y29362286D01*
X45396190Y29438477D01*
X45472381Y29476572D01*
X45624762Y29514667D01*
X45739048Y29514667D01*
X45891429Y29476572D01*
X45967619Y29438477D01*
X46043810Y29362286D01*
X46081905Y29248000D01*
X46081905Y29057524D01*
D11*
X44704000Y25908000D02*
X46228000Y25908000D01*
X44704000Y22860000D02*
X44704000Y25908000D01*
X46228000Y22860000D02*
X44704000Y22860000D01*
X44704000Y22860000D02*
X46228000Y22860000D01*
X44704000Y20066000D02*
X44704000Y22860000D01*
X46228000Y20066000D02*
X44704000Y20066000D01*
X44704000Y20066000D02*
X46228000Y20066000D01*
X44704000Y17018000D02*
X44704000Y20066000D01*
X44704000Y17018000D02*
X46228000Y17018000D01*
X44704000Y10414000D02*
X46228000Y10414000D01*
X44704000Y7366000D02*
X44704000Y10414000D01*
X46228000Y7366000D02*
X44704000Y7366000D01*
X44704000Y7366000D02*
X46228000Y7366000D01*
X44704000Y5334000D02*
X44704000Y7366000D01*
X46228000Y5334000D02*
X44704000Y5334000D01*
X44704000Y5334000D02*
X46228000Y5334000D01*
X44704000Y1778000D02*
X44704000Y5334000D01*
X44704000Y1778000D02*
X46228000Y1778000D01*
D13*
X45193000Y8280477D02*
X45154905Y8204286D01*
X45154905Y8090001D01*
X45193000Y7975715D01*
X45269190Y7899524D01*
X45345381Y7861429D01*
X45497762Y7823334D01*
X45612048Y7823334D01*
X45764429Y7861429D01*
X45840619Y7899524D01*
X45916810Y7975715D01*
X45954905Y8090001D01*
X45954905Y8166191D01*
X45916810Y8280477D01*
X45878714Y8318572D01*
X45612048Y8318572D01*
X45612048Y8166191D01*
X45954905Y8661429D02*
X45154905Y8661429D01*
X45954905Y9118572D01*
X45154905Y9118572D01*
X45954905Y9499524D02*
X45154905Y9499524D01*
X45154905Y9690000D01*
X45193000Y9804286D01*
X45269190Y9880477D01*
X45345381Y9918572D01*
X45497762Y9956667D01*
X45612048Y9956667D01*
X45764429Y9918572D01*
X45840619Y9880477D01*
X45916810Y9804286D01*
X45954905Y9690000D01*
X45954905Y9499524D01*
D12*
X13363715Y8482857D02*
X13363715Y9382857D01*
X13663715Y8740000D01*
X13963715Y9382857D01*
X13963715Y8482857D01*
X14349429Y9297143D02*
X14392286Y9340000D01*
X14478000Y9382857D01*
X14692286Y9382857D01*
X14778000Y9340000D01*
X14820857Y9297143D01*
X14863714Y9211429D01*
X14863714Y9125714D01*
X14820857Y8997143D01*
X14306571Y8482857D01*
X14863714Y8482857D01*
X15206572Y8740000D02*
X15635143Y8740000D01*
X15120857Y8482857D02*
X15420857Y9382857D01*
X15720857Y8482857D01*
X5664286Y9340000D02*
X5578572Y9382857D01*
X5450001Y9382857D01*
X5321429Y9340000D01*
X5235715Y9254286D01*
X5192858Y9168571D01*
X5150001Y8997143D01*
X5150001Y8868571D01*
X5192858Y8697143D01*
X5235715Y8611429D01*
X5321429Y8525714D01*
X5450001Y8482857D01*
X5535715Y8482857D01*
X5664286Y8525714D01*
X5707143Y8568571D01*
X5707143Y8868571D01*
X5535715Y8868571D01*
X6092858Y8482857D02*
X6092858Y9382857D01*
X6607143Y8482857D01*
X6607143Y9382857D01*
X7035715Y8482857D02*
X7035715Y9382857D01*
X7250000Y9382857D01*
X7378572Y9340000D01*
X7464286Y9254286D01*
X7507143Y9168571D01*
X7550000Y8997143D01*
X7550000Y8868571D01*
X7507143Y8697143D01*
X7464286Y8611429D01*
X7378572Y8525714D01*
X7250000Y8482857D01*
X7035715Y8482857D01*
X911429Y9382857D02*
X1211429Y8482857D01*
X1511429Y9382857D01*
X1811430Y8482857D02*
X1811430Y9382857D01*
X2111430Y8740000D01*
X2411430Y9382857D01*
X2411430Y8482857D01*
X3011429Y9382857D02*
X3182858Y9382857D01*
X3268572Y9340000D01*
X3354286Y9254286D01*
X3397144Y9082857D01*
X3397144Y8782857D01*
X3354286Y8611429D01*
X3268572Y8525714D01*
X3182858Y8482857D01*
X3011429Y8482857D01*
X2925715Y8525714D01*
X2840001Y8611429D01*
X2797144Y8782857D01*
X2797144Y9082857D01*
X2840001Y9254286D01*
X2925715Y9340000D01*
X3011429Y9382857D01*
X3654286Y9382857D02*
X4168572Y9382857D01*
X3911429Y8482857D02*
X3911429Y9382857D01*
X13093786Y35883000D02*
X13008072Y35925857D01*
X12879501Y35925857D01*
X12750929Y35883000D01*
X12665215Y35797286D01*
X12622358Y35711571D01*
X12579501Y35540143D01*
X12579501Y35411571D01*
X12622358Y35240143D01*
X12665215Y35154429D01*
X12750929Y35068714D01*
X12879501Y35025857D01*
X12965215Y35025857D01*
X13093786Y35068714D01*
X13136643Y35111571D01*
X13136643Y35411571D01*
X12965215Y35411571D01*
X13522358Y35025857D02*
X13522358Y35925857D01*
X14036643Y35025857D01*
X14036643Y35925857D01*
X14465215Y35025857D02*
X14465215Y35925857D01*
X14679500Y35925857D01*
X14808072Y35883000D01*
X14893786Y35797286D01*
X14936643Y35711571D01*
X14979500Y35540143D01*
X14979500Y35411571D01*
X14936643Y35240143D01*
X14893786Y35154429D01*
X14808072Y35068714D01*
X14679500Y35025857D01*
X14465215Y35025857D01*
X9301286Y35925857D02*
X9601286Y35025857D01*
X9901286Y35925857D01*
X10201287Y35025857D02*
X10201287Y35925857D01*
X10629858Y35025857D02*
X10629858Y35925857D01*
X11144143Y35025857D01*
X11144143Y35925857D01*
X2285857Y11192714D02*
X2414428Y11149857D01*
X2628714Y11149857D01*
X2714428Y11192714D01*
X2757285Y11235571D01*
X2800142Y11321286D01*
X2800142Y11407000D01*
X2757285Y11492714D01*
X2714428Y11535571D01*
X2628714Y11578429D01*
X2457285Y11621286D01*
X2371571Y11664143D01*
X2328714Y11707000D01*
X2285857Y11792714D01*
X2285857Y11878429D01*
X2328714Y11964143D01*
X2371571Y12007000D01*
X2457285Y12049857D01*
X2671571Y12049857D01*
X2800142Y12007000D01*
X3057285Y11749857D02*
X3400142Y11749857D01*
X3185857Y12049857D02*
X3185857Y11278429D01*
X3228714Y11192714D01*
X3314428Y11149857D01*
X3400142Y11149857D01*
X4043000Y11192714D02*
X3957286Y11149857D01*
X3785857Y11149857D01*
X3700143Y11192714D01*
X3657286Y11278429D01*
X3657286Y11621286D01*
X3700143Y11707000D01*
X3785857Y11749857D01*
X3957286Y11749857D01*
X4043000Y11707000D01*
X4085857Y11621286D01*
X4085857Y11535571D01*
X3657286Y11449857D01*
X4471572Y11749857D02*
X4471572Y10849857D01*
X4471572Y11707000D02*
X4557286Y11749857D01*
X4728715Y11749857D01*
X4814429Y11707000D01*
X4857286Y11664143D01*
X4900143Y11578429D01*
X4900143Y11321286D01*
X4857286Y11235571D01*
X4814429Y11192714D01*
X4728715Y11149857D01*
X4557286Y11149857D01*
X4471572Y11192714D01*
X6143000Y12049857D02*
X6314429Y12049857D01*
X6400143Y12007000D01*
X6485857Y11921286D01*
X6528715Y11749857D01*
X6528715Y11449857D01*
X6485857Y11278429D01*
X6400143Y11192714D01*
X6314429Y11149857D01*
X6143000Y11149857D01*
X6057286Y11192714D01*
X5971572Y11278429D01*
X5928715Y11449857D01*
X5928715Y11749857D01*
X5971572Y11921286D01*
X6057286Y12007000D01*
X6143000Y12049857D01*
X6914429Y11749857D02*
X6914429Y11149857D01*
X6914429Y11664143D02*
X6957286Y11707000D01*
X7043000Y11749857D01*
X7171572Y11749857D01*
X7257286Y11707000D01*
X7300143Y11621286D01*
X7300143Y11149857D01*
X8071572Y11192714D02*
X7985858Y11149857D01*
X7814429Y11149857D01*
X7728715Y11192714D01*
X7685858Y11278429D01*
X7685858Y11621286D01*
X7728715Y11707000D01*
X7814429Y11749857D01*
X7985858Y11749857D01*
X8071572Y11707000D01*
X8114429Y11621286D01*
X8114429Y11535571D01*
X7685858Y11449857D01*
X9485858Y11621286D02*
X9614429Y11578429D01*
X9657286Y11535571D01*
X9700143Y11449857D01*
X9700143Y11321286D01*
X9657286Y11235571D01*
X9614429Y11192714D01*
X9528715Y11149857D01*
X9185858Y11149857D01*
X9185858Y12049857D01*
X9485858Y12049857D01*
X9571572Y12007000D01*
X9614429Y11964143D01*
X9657286Y11878429D01*
X9657286Y11792714D01*
X9614429Y11707000D01*
X9571572Y11664143D01*
X9485858Y11621286D01*
X9185858Y11621286D01*
X10214429Y11149857D02*
X10128715Y11192714D01*
X10085858Y11235571D01*
X10043001Y11321286D01*
X10043001Y11578429D01*
X10085858Y11664143D01*
X10128715Y11707000D01*
X10214429Y11749857D01*
X10343001Y11749857D01*
X10428715Y11707000D01*
X10471572Y11664143D01*
X10514429Y11578429D01*
X10514429Y11321286D01*
X10471572Y11235571D01*
X10428715Y11192714D01*
X10343001Y11149857D01*
X10214429Y11149857D01*
X11285858Y11149857D02*
X11285858Y11621286D01*
X11243001Y11707000D01*
X11157287Y11749857D01*
X10985858Y11749857D01*
X10900144Y11707000D01*
X11285858Y11192714D02*
X11200144Y11149857D01*
X10985858Y11149857D01*
X10900144Y11192714D01*
X10857287Y11278429D01*
X10857287Y11364143D01*
X10900144Y11449857D01*
X10985858Y11492714D01*
X11200144Y11492714D01*
X11285858Y11535571D01*
X11714430Y11149857D02*
X11714430Y11749857D01*
X11714430Y11578429D02*
X11757287Y11664143D01*
X11800144Y11707000D01*
X11885858Y11749857D01*
X11971573Y11749857D01*
X12657287Y11149857D02*
X12657287Y12049857D01*
X12657287Y11192714D02*
X12571573Y11149857D01*
X12400144Y11149857D01*
X12314430Y11192714D01*
X12271573Y11235571D01*
X12228716Y11321286D01*
X12228716Y11578429D01*
X12271573Y11664143D01*
X12314430Y11707000D01*
X12400144Y11749857D01*
X12571573Y11749857D01*
X12657287Y11707000D01*
D10*
X39644238Y869143D02*
X39739476Y535810D01*
X39834714Y773905D01*
X39929952Y535810D01*
X40025190Y869143D01*
X40168048Y869143D02*
X40263286Y535810D01*
X40358524Y773905D01*
X40453762Y535810D01*
X40549000Y869143D01*
X40691858Y869143D02*
X40787096Y535810D01*
X40882334Y773905D01*
X40977572Y535810D01*
X41072810Y869143D01*
X41263287Y583429D02*
X41287096Y559619D01*
X41263287Y535810D01*
X41239477Y559619D01*
X41263287Y583429D01*
X41263287Y535810D01*
X41572810Y535810D02*
X41525191Y559619D01*
X41501382Y583429D01*
X41477572Y631048D01*
X41477572Y773905D01*
X41501382Y821524D01*
X41525191Y845333D01*
X41572810Y869143D01*
X41644239Y869143D01*
X41691858Y845333D01*
X41715667Y821524D01*
X41739477Y773905D01*
X41739477Y631048D01*
X41715667Y583429D01*
X41691858Y559619D01*
X41644239Y535810D01*
X41572810Y535810D01*
X41906144Y869143D02*
X42168048Y869143D01*
X41906144Y535810D01*
X42168048Y535810D01*
X42358525Y535810D02*
X42358525Y869143D01*
X42358525Y821524D02*
X42382334Y845333D01*
X42429953Y869143D01*
X42501382Y869143D01*
X42549001Y845333D01*
X42572810Y797714D01*
X42572810Y535810D01*
X42572810Y797714D02*
X42596620Y845333D01*
X42644239Y869143D01*
X42715667Y869143D01*
X42763287Y845333D01*
X42787096Y797714D01*
X42787096Y535810D01*
X43239477Y535810D02*
X43239477Y797714D01*
X43215668Y845333D01*
X43168049Y869143D01*
X43072811Y869143D01*
X43025192Y845333D01*
X43239477Y559619D02*
X43191858Y535810D01*
X43072811Y535810D01*
X43025192Y559619D01*
X43001382Y607238D01*
X43001382Y654857D01*
X43025192Y702476D01*
X43072811Y726286D01*
X43191858Y726286D01*
X43239477Y750095D01*
X43691858Y559619D02*
X43644239Y535810D01*
X43549001Y535810D01*
X43501382Y559619D01*
X43477573Y583429D01*
X43453763Y631048D01*
X43453763Y773905D01*
X43477573Y821524D01*
X43501382Y845333D01*
X43549001Y869143D01*
X43644239Y869143D01*
X43691858Y845333D01*
X43906144Y535810D02*
X43906144Y1035810D01*
X44120429Y535810D02*
X44120429Y797714D01*
X44096620Y845333D01*
X44049001Y869143D01*
X43977572Y869143D01*
X43929953Y845333D01*
X43906144Y821524D01*
X44358525Y583429D02*
X44382334Y559619D01*
X44358525Y535810D01*
X44334715Y559619D01*
X44358525Y583429D01*
X44358525Y535810D01*
X44810905Y559619D02*
X44763286Y535810D01*
X44668048Y535810D01*
X44620429Y559619D01*
X44596620Y583429D01*
X44572810Y631048D01*
X44572810Y773905D01*
X44596620Y821524D01*
X44620429Y845333D01*
X44668048Y869143D01*
X44763286Y869143D01*
X44810905Y845333D01*
X45096619Y535810D02*
X45049000Y559619D01*
X45025191Y583429D01*
X45001381Y631048D01*
X45001381Y773905D01*
X45025191Y821524D01*
X45049000Y845333D01*
X45096619Y869143D01*
X45168048Y869143D01*
X45215667Y845333D01*
X45239476Y821524D01*
X45263286Y773905D01*
X45263286Y631048D01*
X45239476Y583429D01*
X45215667Y559619D01*
X45168048Y535810D01*
X45096619Y535810D01*
X45477572Y535810D02*
X45477572Y869143D01*
X45477572Y821524D02*
X45501381Y845333D01*
X45549000Y869143D01*
X45620429Y869143D01*
X45668048Y845333D01*
X45691857Y797714D01*
X45691857Y535810D01*
X45691857Y797714D02*
X45715667Y845333D01*
X45763286Y869143D01*
X45834714Y869143D01*
X45882334Y845333D01*
X45906143Y797714D01*
X45906143Y535810D01*
D13*
X45535857Y2184571D02*
X45535857Y2451238D01*
X45954905Y2565524D02*
X45954905Y2184571D01*
X45154905Y2184571D01*
X45154905Y2565524D01*
X45954905Y2908381D02*
X45154905Y2908381D01*
X45954905Y3365524D01*
X45154905Y3365524D01*
X45954905Y3746476D02*
X45154905Y3746476D01*
X45154905Y3936952D01*
X45193000Y4051238D01*
X45269190Y4127429D01*
X45345381Y4165524D01*
X45497762Y4203619D01*
X45612048Y4203619D01*
X45764429Y4165524D01*
X45840619Y4127429D01*
X45916810Y4051238D01*
X45954905Y3936952D01*
X45954905Y3746476D01*
X45916810Y4508381D02*
X45954905Y4622667D01*
X45954905Y4813143D01*
X45916810Y4889333D01*
X45878714Y4927429D01*
X45802524Y4965524D01*
X45726333Y4965524D01*
X45650143Y4927429D01*
X45612048Y4889333D01*
X45573952Y4813143D01*
X45535857Y4660762D01*
X45497762Y4584571D01*
X45459667Y4546476D01*
X45383476Y4508381D01*
X45307286Y4508381D01*
X45231095Y4546476D01*
X45193000Y4584571D01*
X45154905Y4660762D01*
X45154905Y4851238D01*
X45193000Y4965524D01*
X45154905Y6197620D02*
X45154905Y5816667D01*
X45535857Y5778572D01*
X45497762Y5816667D01*
X45459667Y5892858D01*
X45459667Y6083334D01*
X45497762Y6159524D01*
X45535857Y6197620D01*
X45612048Y6235715D01*
X45802524Y6235715D01*
X45878714Y6197620D01*
X45916810Y6159524D01*
X45954905Y6083334D01*
X45954905Y5892858D01*
X45916810Y5816667D01*
X45878714Y5778572D01*
X45154905Y6464286D02*
X45954905Y6730953D01*
X45154905Y6997620D01*
X45320000Y17805477D02*
X45281905Y17729286D01*
X45281905Y17615001D01*
X45320000Y17500715D01*
X45396190Y17424524D01*
X45472381Y17386429D01*
X45624762Y17348334D01*
X45739048Y17348334D01*
X45891429Y17386429D01*
X45967619Y17424524D01*
X46043810Y17500715D01*
X46081905Y17615001D01*
X46081905Y17691191D01*
X46043810Y17805477D01*
X46005714Y17843572D01*
X45739048Y17843572D01*
X45739048Y17691191D01*
X46081905Y18186429D02*
X45281905Y18186429D01*
X46081905Y18643572D01*
X45281905Y18643572D01*
X46081905Y19024524D02*
X45281905Y19024524D01*
X45281905Y19215000D01*
X45320000Y19329286D01*
X45396190Y19405477D01*
X45472381Y19443572D01*
X45624762Y19481667D01*
X45739048Y19481667D01*
X45891429Y19443572D01*
X45967619Y19405477D01*
X46043810Y19329286D01*
X46081905Y19215000D01*
X46081905Y19024524D01*
X46043810Y20491572D02*
X46081905Y20605858D01*
X46081905Y20796334D01*
X46043810Y20872524D01*
X46005714Y20910620D01*
X45929524Y20948715D01*
X45853333Y20948715D01*
X45777143Y20910620D01*
X45739048Y20872524D01*
X45700952Y20796334D01*
X45662857Y20643953D01*
X45624762Y20567762D01*
X45586667Y20529667D01*
X45510476Y20491572D01*
X45434286Y20491572D01*
X45358095Y20529667D01*
X45320000Y20567762D01*
X45281905Y20643953D01*
X45281905Y20834429D01*
X45320000Y20948715D01*
X46081905Y21291572D02*
X45281905Y21291572D01*
X45281905Y21482048D01*
X45320000Y21596334D01*
X45396190Y21672525D01*
X45472381Y21710620D01*
X45624762Y21748715D01*
X45739048Y21748715D01*
X45891429Y21710620D01*
X45967619Y21672525D01*
X46043810Y21596334D01*
X46081905Y21482048D01*
X46081905Y21291572D01*
X45853333Y22053477D02*
X45853333Y22434429D01*
X46081905Y21977286D02*
X45281905Y22243953D01*
X46081905Y22510620D01*
X46043810Y23431619D02*
X46081905Y23545905D01*
X46081905Y23736381D01*
X46043810Y23812571D01*
X46005714Y23850667D01*
X45929524Y23888762D01*
X45853333Y23888762D01*
X45777143Y23850667D01*
X45739048Y23812571D01*
X45700952Y23736381D01*
X45662857Y23584000D01*
X45624762Y23507809D01*
X45586667Y23469714D01*
X45510476Y23431619D01*
X45434286Y23431619D01*
X45358095Y23469714D01*
X45320000Y23507809D01*
X45281905Y23584000D01*
X45281905Y23774476D01*
X45320000Y23888762D01*
X46005714Y24688762D02*
X46043810Y24650667D01*
X46081905Y24536381D01*
X46081905Y24460191D01*
X46043810Y24345905D01*
X45967619Y24269714D01*
X45891429Y24231619D01*
X45739048Y24193524D01*
X45624762Y24193524D01*
X45472381Y24231619D01*
X45396190Y24269714D01*
X45320000Y24345905D01*
X45281905Y24460191D01*
X45281905Y24536381D01*
X45320000Y24650667D01*
X45358095Y24688762D01*
X46081905Y25412572D02*
X46081905Y25031619D01*
X45281905Y25031619D01*
X45281905Y42062476D02*
X45281905Y42519619D01*
X46081905Y42291048D02*
X45281905Y42291048D01*
X45281905Y42710096D02*
X46081905Y43243429D01*
X45281905Y43243429D02*
X46081905Y42710096D01*
X46081905Y39871667D02*
X45700952Y39605000D01*
X46081905Y39414524D02*
X45281905Y39414524D01*
X45281905Y39719286D01*
X45320000Y39795477D01*
X45358095Y39833572D01*
X45434286Y39871667D01*
X45548571Y39871667D01*
X45624762Y39833572D01*
X45662857Y39795477D01*
X45700952Y39719286D01*
X45700952Y39414524D01*
X45281905Y40138334D02*
X46081905Y40671667D01*
X45281905Y40671667D02*
X46081905Y40138334D01*
X45320000Y36728477D02*
X45281905Y36652286D01*
X45281905Y36538001D01*
X45320000Y36423715D01*
X45396190Y36347524D01*
X45472381Y36309429D01*
X45624762Y36271334D01*
X45739048Y36271334D01*
X45891429Y36309429D01*
X45967619Y36347524D01*
X46043810Y36423715D01*
X46081905Y36538001D01*
X46081905Y36614191D01*
X46043810Y36728477D01*
X46005714Y36766572D01*
X45739048Y36766572D01*
X45739048Y36614191D01*
X46081905Y37109429D02*
X45281905Y37109429D01*
X46081905Y37566572D01*
X45281905Y37566572D01*
X46081905Y37947524D02*
X45281905Y37947524D01*
X45281905Y38138000D01*
X45320000Y38252286D01*
X45396190Y38328477D01*
X45472381Y38366572D01*
X45624762Y38404667D01*
X45739048Y38404667D01*
X45891429Y38366572D01*
X45967619Y38328477D01*
X46043810Y38252286D01*
X46081905Y38138000D01*
X46081905Y37947524D01*
X45281905Y34645620D02*
X45281905Y34264667D01*
X45662857Y34226572D01*
X45624762Y34264667D01*
X45586667Y34340858D01*
X45586667Y34531334D01*
X45624762Y34607524D01*
X45662857Y34645620D01*
X45739048Y34683715D01*
X45929524Y34683715D01*
X46005714Y34645620D01*
X46043810Y34607524D01*
X46081905Y34531334D01*
X46081905Y34340858D01*
X46043810Y34264667D01*
X46005714Y34226572D01*
X45281905Y34912286D02*
X46081905Y35178953D01*
X45281905Y35445620D01*
X45281905Y31089620D02*
X45281905Y30708667D01*
X45662857Y30670572D01*
X45624762Y30708667D01*
X45586667Y30784858D01*
X45586667Y30975334D01*
X45624762Y31051524D01*
X45662857Y31089620D01*
X45739048Y31127715D01*
X45929524Y31127715D01*
X46005714Y31089620D01*
X46043810Y31051524D01*
X46081905Y30975334D01*
X46081905Y30784858D01*
X46043810Y30708667D01*
X46005714Y30670572D01*
X45281905Y31356286D02*
X46081905Y31622953D01*
X45281905Y31889620D01*
D11*
X3645000Y5775000D02*
X5245000Y5775000D01*
X5245000Y5775000D02*
X5245000Y6975000D01*
X3645000Y6975000D02*
X3645000Y5775000D01*
X4445000Y6975000D02*
X7945000Y6975000D01*
X7945000Y6975000D02*
X7945000Y475000D01*
X7945000Y475000D02*
X945000Y475000D01*
X945000Y475000D02*
X945000Y6975000D01*
X945000Y6975000D02*
X4445000Y6975000D01*
D14*
X24405001Y-21001D02*
X24405001Y4550999D01*
X24405001Y4550999D02*
X28215001Y4550999D01*
X28215001Y4550999D02*
X28215001Y-21001D01*
X28215001Y-21001D02*
X24405001Y-21001D01*
X25548001Y23219999D02*
X28088001Y23219999D01*
X28088001Y23219999D02*
X28088001Y25759999D01*
X28088001Y25759999D02*
X25548001Y25759999D01*
X25548001Y25759999D02*
X25548001Y23219999D01*
X27580001Y24489999D02*
G75*
G03X27580001Y24489999I-762000J0D01*
G01*
X22500001Y43412999D02*
X30120001Y43412999D01*
X30120001Y43412999D02*
X30120001Y38332999D01*
X30120001Y38332999D02*
X22500001Y38332999D01*
X22500001Y38332999D02*
X22500001Y43412999D01*
D11*
X17420001Y359999D02*
X35200001Y359999D01*
X35200001Y359999D02*
X35200001Y43539999D01*
X35200001Y43539999D02*
X17420001Y43539999D01*
X17420001Y43539999D02*
X17420001Y359999D01*
D14*
X33295001Y1629999D02*
X34565001Y1629999D01*
X33930001Y2264999D02*
X33930001Y994999D01*
X18055001Y1629999D02*
X19325001Y1629999D01*
X18690001Y2264999D02*
X18690001Y994999D01*
X33295001Y42269999D02*
X34565001Y42269999D01*
X33930001Y42904999D02*
X33930001Y41634999D01*
X18055001Y42269999D02*
X19325001Y42269999D01*
X18690001Y42904999D02*
X18690001Y41634999D01*
D11*
X17420001Y2899999D02*
X19960001Y2899999D01*
X19960001Y2899999D02*
X19960001Y40999999D01*
X19960001Y40999999D02*
X17420001Y40999999D01*
X17420001Y40999999D02*
X17420001Y2899999D01*
X32660001Y40999999D02*
X35200001Y40999999D01*
X35200001Y40999999D02*
X35200001Y2899999D01*
X35200001Y2899999D02*
X32660001Y2899999D01*
X32660001Y2899999D02*
X32660001Y40999999D01*
D14*
X34946001Y1629999D02*
G75*
G03X34946001Y1629999I-1016000J0D01*
G01*
X19706001Y1629999D02*
G75*
G03X19706001Y1629999I-1016000J0D01*
G01*
X19706001Y42269999D02*
G75*
G03X19706001Y42269999I-1016000J0D01*
G01*
X34946001Y42269999D02*
G75*
G03X34946001Y42269999I-1016000J0D01*
G01*
D11*
X38735000Y41275000D02*
X38735000Y33655000D01*
X41275000Y41275000D02*
X41275000Y33655000D01*
X41555000Y44095000D02*
X41555000Y42545000D01*
X38735000Y33655000D02*
X41275000Y33655000D01*
X41275000Y41275000D02*
X38735000Y41275000D01*
X38455000Y42545000D02*
X38455000Y44095000D01*
X38455000Y44095000D02*
X41555000Y44095000D01*
X41275000Y5080000D02*
X41275000Y10160000D01*
X41275000Y10160000D02*
X38735000Y10160000D01*
X38735000Y10160000D02*
X38735000Y5080000D01*
X38455000Y2260000D02*
X38455000Y3810000D01*
X38735000Y5080000D02*
X41275000Y5080000D01*
X41555000Y3810000D02*
X41555000Y2260000D01*
X41555000Y2260000D02*
X38455000Y2260000D01*
X12865000Y38040000D02*
X11265000Y38040000D01*
X11265000Y38040000D02*
X11265000Y36840000D01*
X12865000Y36840000D02*
X12865000Y38040000D01*
X12065000Y36840000D02*
X8565000Y36840000D01*
X8565000Y36840000D02*
X8565000Y43340000D01*
X8565000Y43340000D02*
X15565000Y43340000D01*
X15565000Y43340000D02*
X15565000Y36840000D01*
X15565000Y36840000D02*
X12065000Y36840000D01*
X4864000Y38040000D02*
X3264000Y38040000D01*
X3264000Y38040000D02*
X3264000Y36840000D01*
X4864000Y36840000D02*
X4864000Y38040000D01*
X4064000Y36840000D02*
X564000Y36840000D01*
X564000Y36840000D02*
X564000Y43340000D01*
X564000Y43340000D02*
X7564000Y43340000D01*
X7564000Y43340000D02*
X7564000Y36840000D01*
X7564000Y36840000D02*
X4064000Y36840000D01*
X11900000Y5775000D02*
X13500000Y5775000D01*
X13500000Y5775000D02*
X13500000Y6975000D01*
X11900000Y6975000D02*
X11900000Y5775000D01*
X12700000Y6975000D02*
X16200000Y6975000D01*
X16200000Y6975000D02*
X16200000Y475000D01*
X16200000Y475000D02*
X9200000Y475000D01*
X9200000Y475000D02*
X9200000Y6975000D01*
X9200000Y6975000D02*
X12700000Y6975000D01*
X635000Y33020000D02*
X635000Y12700000D01*
X635000Y12700000D02*
X15875000Y12700000D01*
X15875000Y12700000D02*
X15875000Y33020000D01*
X15875000Y33020000D02*
X635000Y33020000D01*
X41275000Y29464000D02*
X41275000Y26924000D01*
X41555000Y32284000D02*
X41555000Y30734000D01*
X41275000Y29464000D02*
X38735000Y29464000D01*
X38455000Y30734000D02*
X38455000Y32284000D01*
X38455000Y32284000D02*
X41555000Y32284000D01*
X38735000Y29464000D02*
X38735000Y26924000D01*
X38735000Y26924000D02*
X41275000Y26924000D01*
X40605000Y14365000D02*
X39405000Y14365000D01*
X39405000Y16115000D02*
X40605000Y16115000D01*
X39405000Y13575000D02*
X40605000Y13575000D01*
X40605000Y11825000D02*
X39405000Y11825000D01*
X38735000Y22860000D02*
X38735000Y17780000D01*
X38735000Y17780000D02*
X41275000Y17780000D01*
X41275000Y17780000D02*
X41275000Y22860000D01*
X41555000Y25680000D02*
X41555000Y24130000D01*
X41275000Y22860000D02*
X38735000Y22860000D01*
X38455000Y24130000D02*
X38455000Y25680000D01*
X38455000Y25680000D02*
X41555000Y25680000D01*
D15*
X27170000Y4669287D02*
X27170000Y6097858D01*
X28027143Y4383572D02*
X25027143Y5383572D01*
X28027143Y6383572D01*
X28027143Y9097858D02*
X26598571Y8097858D01*
X28027143Y7383573D02*
X25027143Y7383573D01*
X25027143Y8526430D01*
X25170000Y8812144D01*
X25312857Y8955001D01*
X25598571Y9097858D01*
X26027143Y9097858D01*
X26312857Y8955001D01*
X26455714Y8812144D01*
X26598571Y8526430D01*
X26598571Y7383573D01*
X28027143Y10383573D02*
X25027143Y10383573D01*
X25027143Y11097858D01*
X25170000Y11526430D01*
X25455714Y11812144D01*
X25741429Y11955001D01*
X26312857Y12097858D01*
X26741429Y12097858D01*
X27312857Y11955001D01*
X27598571Y11812144D01*
X27884286Y11526430D01*
X28027143Y11097858D01*
X28027143Y10383573D01*
X25027143Y13383573D02*
X27455714Y13383573D01*
X27741429Y13526430D01*
X27884286Y13669287D01*
X28027143Y13955001D01*
X28027143Y14526430D01*
X27884286Y14812144D01*
X27741429Y14955001D01*
X27455714Y15097858D01*
X25027143Y15097858D01*
X28027143Y16526430D02*
X25027143Y16526430D01*
X28027143Y17955001D02*
X25027143Y17955001D01*
X28027143Y19669286D01*
X25027143Y19669286D01*
X25027143Y21669286D02*
X25027143Y22240715D01*
X25170000Y22526429D01*
X25455714Y22812143D01*
X26027143Y22955001D01*
X27027143Y22955001D01*
X27598571Y22812143D01*
X27884286Y22526429D01*
X28027143Y22240715D01*
X28027143Y21669286D01*
X27884286Y21383572D01*
X27598571Y21097858D01*
X27027143Y20955001D01*
X26027143Y20955001D01*
X25455714Y21097858D01*
X25170000Y21383572D01*
X25027143Y21669286D01*
X28312857Y23526429D02*
X28312857Y25812143D01*
X28027143Y26526429D02*
X25027143Y26526429D01*
X28027143Y28240714D01*
X25027143Y28240714D01*
X27170000Y29526429D02*
X27170000Y30955000D01*
X28027143Y29240714D02*
X25027143Y30240714D01*
X28027143Y31240714D01*
X28027143Y32240715D02*
X25027143Y32240715D01*
X28027143Y33955000D01*
X25027143Y33955000D01*
X25027143Y35955000D02*
X25027143Y36526429D01*
X25170000Y36812143D01*
X25455714Y37097857D01*
X26027143Y37240715D01*
X27027143Y37240715D01*
X27598571Y37097857D01*
X27884286Y36812143D01*
X28027143Y36526429D01*
X28027143Y35955000D01*
X27884286Y35669286D01*
X27598571Y35383572D01*
X27027143Y35240715D01*
X26027143Y35240715D01*
X25455714Y35383572D01*
X25170000Y35669286D01*
X25027143Y35955000D01*
D11*
X9795000Y31297619D02*
X9795000Y32297619D01*
X10033095Y32297619D01*
X10175953Y32250000D01*
X10271191Y32154762D01*
X10318810Y32059524D01*
X10366429Y31869048D01*
X10366429Y31726190D01*
X10318810Y31535714D01*
X10271191Y31440476D01*
X10175953Y31345238D01*
X10033095Y31297619D01*
X9795000Y31297619D01*
X10795000Y31297619D02*
X10795000Y32297619D01*
X11842619Y31297619D02*
X11509285Y31773810D01*
X11271190Y31297619D02*
X11271190Y32297619D01*
X11652143Y32297619D01*
X11747381Y32250000D01*
X11795000Y32202381D01*
X11842619Y32107143D01*
X11842619Y31964286D01*
X11795000Y31869048D01*
X11747381Y31821429D01*
X11652143Y31773810D01*
X11271190Y31773810D01*
X9175952Y28805238D02*
X9318809Y28757619D01*
X9556905Y28757619D01*
X9652143Y28805238D01*
X9699762Y28852857D01*
X9747381Y28948095D01*
X9747381Y29043333D01*
X9699762Y29138571D01*
X9652143Y29186190D01*
X9556905Y29233810D01*
X9366428Y29281429D01*
X9271190Y29329048D01*
X9223571Y29376667D01*
X9175952Y29471905D01*
X9175952Y29567143D01*
X9223571Y29662381D01*
X9271190Y29710000D01*
X9366428Y29757619D01*
X9604524Y29757619D01*
X9747381Y29710000D01*
X10033095Y29757619D02*
X10604524Y29757619D01*
X10318809Y28757619D02*
X10318809Y29757619D01*
X10937857Y29281429D02*
X11271191Y29281429D01*
X11414048Y28757619D02*
X10937857Y28757619D01*
X10937857Y29757619D01*
X11414048Y29757619D01*
X11842619Y28757619D02*
X11842619Y29757619D01*
X12223572Y29757619D01*
X12318810Y29710000D01*
X12366429Y29662381D01*
X12414048Y29567143D01*
X12414048Y29424286D01*
X12366429Y29329048D01*
X12318810Y29281429D01*
X12223572Y29233810D01*
X11842619Y29233810D01*
X9604524Y26265238D02*
X9747381Y26217619D01*
X9985477Y26217619D01*
X10080715Y26265238D01*
X10128334Y26312857D01*
X10175953Y26408095D01*
X10175953Y26503333D01*
X10128334Y26598571D01*
X10080715Y26646190D01*
X9985477Y26693810D01*
X9795000Y26741429D01*
X9699762Y26789048D01*
X9652143Y26836667D01*
X9604524Y26931905D01*
X9604524Y27027143D01*
X9652143Y27122381D01*
X9699762Y27170000D01*
X9795000Y27217619D01*
X10033096Y27217619D01*
X10175953Y27170000D01*
X11080715Y26217619D02*
X10604524Y26217619D01*
X10604524Y27217619D01*
X11414048Y26217619D02*
X11414048Y27217619D01*
X11795001Y27217619D01*
X11890239Y27170000D01*
X11937858Y27122381D01*
X11985477Y27027143D01*
X11985477Y26884286D01*
X11937858Y26789048D01*
X11890239Y26741429D01*
X11795001Y26693810D01*
X11414048Y26693810D01*
X10247381Y23677619D02*
X9914047Y24153810D01*
X9675952Y23677619D02*
X9675952Y24677619D01*
X10056905Y24677619D01*
X10152143Y24630000D01*
X10199762Y24582381D01*
X10247381Y24487143D01*
X10247381Y24344286D01*
X10199762Y24249048D01*
X10152143Y24201429D01*
X10056905Y24153810D01*
X9675952Y24153810D01*
X10628333Y23725238D02*
X10771190Y23677619D01*
X11009286Y23677619D01*
X11104524Y23725238D01*
X11152143Y23772857D01*
X11199762Y23868095D01*
X11199762Y23963333D01*
X11152143Y24058571D01*
X11104524Y24106190D01*
X11009286Y24153810D01*
X10818809Y24201429D01*
X10723571Y24249048D01*
X10675952Y24296667D01*
X10628333Y24391905D01*
X10628333Y24487143D01*
X10675952Y24582381D01*
X10723571Y24630000D01*
X10818809Y24677619D01*
X11056905Y24677619D01*
X11199762Y24630000D01*
X11485476Y24677619D02*
X12056905Y24677619D01*
X11771190Y23677619D02*
X11771190Y24677619D01*
X9509286Y21137619D02*
X9509286Y22137619D01*
X9842620Y21423333D01*
X10175953Y22137619D01*
X10175953Y21137619D01*
X10604524Y21185238D02*
X10747381Y21137619D01*
X10985477Y21137619D01*
X11080715Y21185238D01*
X11128334Y21232857D01*
X11175953Y21328095D01*
X11175953Y21423333D01*
X11128334Y21518571D01*
X11080715Y21566190D01*
X10985477Y21613810D01*
X10795000Y21661429D01*
X10699762Y21709048D01*
X10652143Y21756667D01*
X10604524Y21851905D01*
X10604524Y21947143D01*
X10652143Y22042381D01*
X10699762Y22090000D01*
X10795000Y22137619D01*
X11033096Y22137619D01*
X11175953Y22090000D01*
X11509286Y22137619D02*
X12128334Y22137619D01*
X11795000Y21756667D01*
X11937858Y21756667D01*
X12033096Y21709048D01*
X12080715Y21661429D01*
X12128334Y21566190D01*
X12128334Y21328095D01*
X12080715Y21232857D01*
X12033096Y21185238D01*
X11937858Y21137619D01*
X11652143Y21137619D01*
X11556905Y21185238D01*
X11509286Y21232857D01*
X9509286Y18597619D02*
X9509286Y19597619D01*
X9842620Y18883333D01*
X10175953Y19597619D01*
X10175953Y18597619D01*
X10604524Y18645238D02*
X10747381Y18597619D01*
X10985477Y18597619D01*
X11080715Y18645238D01*
X11128334Y18692857D01*
X11175953Y18788095D01*
X11175953Y18883333D01*
X11128334Y18978571D01*
X11080715Y19026190D01*
X10985477Y19073810D01*
X10795000Y19121429D01*
X10699762Y19169048D01*
X10652143Y19216667D01*
X10604524Y19311905D01*
X10604524Y19407143D01*
X10652143Y19502381D01*
X10699762Y19550000D01*
X10795000Y19597619D01*
X11033096Y19597619D01*
X11175953Y19550000D01*
X11556905Y19502381D02*
X11604524Y19550000D01*
X11699762Y19597619D01*
X11937858Y19597619D01*
X12033096Y19550000D01*
X12080715Y19502381D01*
X12128334Y19407143D01*
X12128334Y19311905D01*
X12080715Y19169048D01*
X11509286Y18597619D01*
X12128334Y18597619D01*
X9509286Y16057619D02*
X9509286Y17057619D01*
X9842620Y16343333D01*
X10175953Y17057619D01*
X10175953Y16057619D01*
X10604524Y16105238D02*
X10747381Y16057619D01*
X10985477Y16057619D01*
X11080715Y16105238D01*
X11128334Y16152857D01*
X11175953Y16248095D01*
X11175953Y16343333D01*
X11128334Y16438571D01*
X11080715Y16486190D01*
X10985477Y16533810D01*
X10795000Y16581429D01*
X10699762Y16629048D01*
X10652143Y16676667D01*
X10604524Y16771905D01*
X10604524Y16867143D01*
X10652143Y16962381D01*
X10699762Y17010000D01*
X10795000Y17057619D01*
X11033096Y17057619D01*
X11175953Y17010000D01*
X12128334Y16057619D02*
X11556905Y16057619D01*
X11842619Y16057619D02*
X11842619Y17057619D01*
X11747381Y16914762D01*
X11652143Y16819524D01*
X11556905Y16771905D01*
X10056905Y14041429D02*
X10390239Y14041429D01*
X10533096Y13517619D02*
X10056905Y13517619D01*
X10056905Y14517619D01*
X10533096Y14517619D01*
X10961667Y13517619D02*
X10961667Y14517619D01*
X11533096Y13517619D01*
X11533096Y14517619D01*
X3905476Y14517619D02*
X4238809Y13517619D01*
X4572143Y14517619D01*
X4905476Y13517619D02*
X4905476Y14517619D01*
X5238810Y13803333D01*
X5572143Y14517619D01*
X5572143Y13517619D01*
X6238809Y14517619D02*
X6429286Y14517619D01*
X6524524Y14470000D01*
X6619762Y14374762D01*
X6667381Y14184286D01*
X6667381Y13850952D01*
X6619762Y13660476D01*
X6524524Y13565238D01*
X6429286Y13517619D01*
X6238809Y13517619D01*
X6143571Y13565238D01*
X6048333Y13660476D01*
X6000714Y13850952D01*
X6000714Y14184286D01*
X6048333Y14374762D01*
X6143571Y14470000D01*
X6238809Y14517619D01*
X6953095Y14517619D02*
X7524524Y14517619D01*
X7238809Y13517619D02*
X7238809Y14517619D01*
X4953096Y17010000D02*
X4857858Y17057619D01*
X4715001Y17057619D01*
X4572143Y17010000D01*
X4476905Y16914762D01*
X4429286Y16819524D01*
X4381667Y16629048D01*
X4381667Y16486190D01*
X4429286Y16295714D01*
X4476905Y16200476D01*
X4572143Y16105238D01*
X4715001Y16057619D01*
X4810239Y16057619D01*
X4953096Y16105238D01*
X5000715Y16152857D01*
X5000715Y16486190D01*
X4810239Y16486190D01*
X5429286Y16057619D02*
X5429286Y17057619D01*
X6000715Y16057619D01*
X6000715Y17057619D01*
X6476905Y16057619D02*
X6476905Y17057619D01*
X6715000Y17057619D01*
X6857858Y17010000D01*
X6953096Y16914762D01*
X7000715Y16819524D01*
X7048334Y16629048D01*
X7048334Y16486190D01*
X7000715Y16295714D01*
X6953096Y16200476D01*
X6857858Y16105238D01*
X6715000Y16057619D01*
X6476905Y16057619D01*
X4929286Y19502381D02*
X4976905Y19550000D01*
X5072143Y19597619D01*
X5310239Y19597619D01*
X5405477Y19550000D01*
X5453096Y19502381D01*
X5500715Y19407143D01*
X5500715Y19311905D01*
X5453096Y19169048D01*
X4881667Y18597619D01*
X5500715Y18597619D01*
X6262620Y19121429D02*
X6405477Y19073810D01*
X6453096Y19026190D01*
X6500715Y18930952D01*
X6500715Y18788095D01*
X6453096Y18692857D01*
X6405477Y18645238D01*
X6310239Y18597619D01*
X5929286Y18597619D01*
X5929286Y19597619D01*
X6262620Y19597619D01*
X6357858Y19550000D01*
X6405477Y19502381D01*
X6453096Y19407143D01*
X6453096Y19311905D01*
X6405477Y19216667D01*
X6357858Y19169048D01*
X6262620Y19121429D01*
X5929286Y19121429D01*
X5000714Y22042381D02*
X5048333Y22090000D01*
X5143571Y22137619D01*
X5381667Y22137619D01*
X5476905Y22090000D01*
X5524524Y22042381D01*
X5572143Y21947143D01*
X5572143Y21851905D01*
X5524524Y21709048D01*
X4953095Y21137619D01*
X5572143Y21137619D01*
X5953095Y21423333D02*
X6429286Y21423333D01*
X5857857Y21137619D02*
X6191190Y22137619D01*
X6524524Y21137619D01*
X5572143Y23677619D02*
X5000714Y23677619D01*
X5286428Y23677619D02*
X5286428Y24677619D01*
X5191190Y24534762D01*
X5095952Y24439524D01*
X5000714Y24391905D01*
X5953095Y23963333D02*
X6429286Y23963333D01*
X5857857Y23677619D02*
X6191190Y24677619D01*
X6524524Y23677619D01*
X5500715Y26217619D02*
X4929286Y26217619D01*
X5215000Y26217619D02*
X5215000Y27217619D01*
X5119762Y27074762D01*
X5024524Y26979524D01*
X4929286Y26931905D01*
X6262620Y26741429D02*
X6405477Y26693810D01*
X6453096Y26646190D01*
X6500715Y26550952D01*
X6500715Y26408095D01*
X6453096Y26312857D01*
X6405477Y26265238D01*
X6310239Y26217619D01*
X5929286Y26217619D01*
X5929286Y27217619D01*
X6262620Y27217619D01*
X6357858Y27170000D01*
X6405477Y27122381D01*
X6453096Y27027143D01*
X6453096Y26931905D01*
X6405477Y26836667D01*
X6357858Y26789048D01*
X6262620Y26741429D01*
X5929286Y26741429D01*
X4381667Y29757619D02*
X4715000Y28757619D01*
X5048334Y29757619D01*
X5381667Y28757619D02*
X5381667Y29757619D01*
X5619762Y29757619D01*
X5762620Y29710000D01*
X5857858Y29614762D01*
X5905477Y29519524D01*
X5953096Y29329048D01*
X5953096Y29186190D01*
X5905477Y28995714D01*
X5857858Y28900476D01*
X5762620Y28805238D01*
X5619762Y28757619D01*
X5381667Y28757619D01*
X6381667Y28757619D02*
X6381667Y29757619D01*
X6619762Y29757619D01*
X6762620Y29710000D01*
X6857858Y29614762D01*
X6905477Y29519524D01*
X6953096Y29329048D01*
X6953096Y29186190D01*
X6905477Y28995714D01*
X6857858Y28900476D01*
X6762620Y28805238D01*
X6619762Y28757619D01*
X6381667Y28757619D01*
X4953096Y32250000D02*
X4857858Y32297619D01*
X4715001Y32297619D01*
X4572143Y32250000D01*
X4476905Y32154762D01*
X4429286Y32059524D01*
X4381667Y31869048D01*
X4381667Y31726190D01*
X4429286Y31535714D01*
X4476905Y31440476D01*
X4572143Y31345238D01*
X4715001Y31297619D01*
X4810239Y31297619D01*
X4953096Y31345238D01*
X5000715Y31392857D01*
X5000715Y31726190D01*
X4810239Y31726190D01*
X5429286Y31297619D02*
X5429286Y32297619D01*
X6000715Y31297619D01*
X6000715Y32297619D01*
X6476905Y31297619D02*
X6476905Y32297619D01*
X6715000Y32297619D01*
X6857858Y32250000D01*
X6953096Y32154762D01*
X7000715Y32059524D01*
X7048334Y31869048D01*
X7048334Y31726190D01*
X7000715Y31535714D01*
X6953096Y31440476D01*
X6857858Y31345238D01*
X6715000Y31297619D01*
X6476905Y31297619D01*
X39266905Y28777619D02*
X39266905Y29777619D01*
X39647858Y29777619D01*
X39743096Y29730000D01*
X39790715Y29682381D01*
X39838334Y29587143D01*
X39838334Y29444286D01*
X39790715Y29349048D01*
X39743096Y29301429D01*
X39647858Y29253810D01*
X39266905Y29253810D01*
X40171667Y29777619D02*
X40790715Y29777619D01*
X40457381Y29396667D01*
X40600239Y29396667D01*
X40695477Y29349048D01*
X40743096Y29301429D01*
X40790715Y29206190D01*
X40790715Y28968095D01*
X40743096Y28872857D01*
X40695477Y28825238D01*
X40600239Y28777619D01*
X40314524Y28777619D01*
X40219286Y28825238D01*
X40171667Y28872857D01*
M02*
