EESchema Schematic File Version 2
LIBS:power
LIBS:device
LIBS:switches
LIBS:relays
LIBS:motors
LIBS:transistors
LIBS:conn
LIBS:linear
LIBS:regul
LIBS:74xx
LIBS:cmos4000
LIBS:adc-dac
LIBS:memory
LIBS:xilinx
LIBS:microcontrollers
LIBS:dsp
LIBS:microchip
LIBS:analog_switches
LIBS:motorola
LIBS:texas
LIBS:intel
LIBS:audio
LIBS:interface
LIBS:digital-audio
LIBS:philips
LIBS:display
LIBS:cypress
LIBS:siliconi
LIBS:opto
LIBS:atmel
LIBS:contrib
LIBS:valves
LIBS:ArduProMiniTKB
LIBS:bluetooth
LIBS:lm2575-5
LIBS:step1-cache
EELAYER 25 0
EELAYER END
$Descr A4 11693 8268
encoding utf-8
Sheet 1 1
Title ""
Date ""
Rev ""
Comp ""
Comment1 ""
Comment2 ""
Comment3 ""
Comment4 ""
$EndDescr
$Comp
L ARDUPROMINI-6 MCU1
U 1 1 5A5FB2A1
P 4400 3200
F 0 "MCU1" H 4400 3200 39  0000 C CNN
F 1 "ARDUPROMINI-6" H 4400 4000 60  0000 C CNN
F 2 "ArduProMiniTKB:ArduProMini-6" H 4400 3200 60  0001 C CNN
F 3 "" H 4400 3200 60  0000 C CNN
	1    4400 3200
	1    0    0    -1  
$EndComp
$Comp
L LM2575-5 U1
U 1 1 5A5FB50C
P 4350 1300
F 0 "U1" H 4750 1700 60  0000 C CNN
F 1 "LM2575-5" H 4350 1700 60  0000 C CNN
F 2 "lm2575:lm7805-with-heatsink" H 4250 1300 60  0001 C CNN
F 3 "" H 4250 1300 60  0001 C CNN
	1    4350 1300
	1    0    0    -1  
$EndComp
Wire Wire Line
	3750 1050 3500 1050
$Comp
L CP C1
U 1 1 5A5FB6A1
P 3600 1200
F 0 "C1" H 3625 1300 50  0000 L CNN
F 1 "100µH" H 3625 1100 50  0000 L CNN
F 2 "Capacitors_THT:CP_Radial_D8.0mm_P3.50mm" H 3638 1050 50  0001 C CNN
F 3 "" H 3600 1200 50  0001 C CNN
	1    3600 1200
	1    0    0    -1  
$EndComp
$Comp
L GND #PWR01
U 1 1 5A5FB777
P 3600 1350
F 0 "#PWR01" H 3600 1100 50  0001 C CNN
F 1 "GND" H 3600 1200 50  0000 C CNN
F 2 "" H 3600 1350 50  0001 C CNN
F 3 "" H 3600 1350 50  0001 C CNN
	1    3600 1350
	1    0    0    -1  
$EndComp
$Comp
L GND #PWR02
U 1 1 5A5FB8D9
P 4200 1600
F 0 "#PWR02" H 4200 1350 50  0001 C CNN
F 1 "GND" H 4200 1450 50  0000 C CNN
F 2 "" H 4200 1600 50  0001 C CNN
F 3 "" H 4200 1600 50  0001 C CNN
	1    4200 1600
	1    0    0    -1  
$EndComp
$Comp
L GND #PWR03
U 1 1 5A5FB8F3
P 4500 1600
F 0 "#PWR03" H 4500 1350 50  0001 C CNN
F 1 "GND" H 4500 1450 50  0000 C CNN
F 2 "" H 4500 1600 50  0001 C CNN
F 3 "" H 4500 1600 50  0001 C CNN
	1    4500 1600
	1    0    0    -1  
$EndComp
$Comp
L L L1
U 1 1 5A5FBA01
P 5350 1200
F 0 "L1" V 5300 1200 50  0000 C CNN
F 1 "L" V 5425 1200 50  0000 C CNN
F 2 "Inductors:INDUCTOR_V" H 5350 1200 50  0001 C CNN
F 3 "" H 5350 1200 50  0001 C CNN
	1    5350 1200
	0    1    1    0   
$EndComp
Wire Wire Line
	5000 1200 5200 1200
Wire Wire Line
	5500 1200 5650 1200
Wire Wire Line
	5650 1050 5650 1250
Wire Wire Line
	5650 1050 5000 1050
$Comp
L CP C2
U 1 1 5A5FBB02
P 5650 1400
F 0 "C2" H 5675 1500 50  0000 L CNN
F 1 "330µH" H 5400 1300 50  0000 L CNN
F 2 "Capacitors_THT:CP_Radial_D8.0mm_P3.50mm" H 5688 1250 50  0001 C CNN
F 3 "" H 5650 1400 50  0001 C CNN
	1    5650 1400
	1    0    0    -1  
$EndComp
Connection ~ 5650 1200
$Comp
L GND #PWR04
U 1 1 5A5FBBF7
P 5650 1550
F 0 "#PWR04" H 5650 1300 50  0001 C CNN
F 1 "GND" H 5650 1400 50  0000 C CNN
F 2 "" H 5650 1550 50  0001 C CNN
F 3 "" H 5650 1550 50  0001 C CNN
	1    5650 1550
	1    0    0    -1  
$EndComp
$Comp
L D_Schottky D1
U 1 1 5A5FBC86
P 5100 1550
F 0 "D1" H 5100 1650 50  0000 C CNN
F 1 "D_Schottky" H 5100 1450 50  0000 C CNN
F 2 "Diodes_THT:D_A-405_P7.62mm_Horizontal" H 5100 1550 50  0001 C CNN
F 3 "" H 5100 1550 50  0001 C CNN
	1    5100 1550
	0    1    1    0   
$EndComp
Wire Wire Line
	5100 1400 5100 1200
Connection ~ 5100 1200
$Comp
L GND #PWR05
U 1 1 5A5FBD15
P 5100 1700
F 0 "#PWR05" H 5100 1450 50  0001 C CNN
F 1 "GND" H 5100 1550 50  0000 C CNN
F 2 "" H 5100 1700 50  0001 C CNN
F 3 "" H 5100 1700 50  0001 C CNN
	1    5100 1700
	1    0    0    -1  
$EndComp
Text Label 5100 950  0    118  ~ 0
POWER
Wire Notes Line
	3250 750  5850 750 
Wire Notes Line
	5850 750  5850 2000
Wire Notes Line
	5850 2000 3250 2000
Wire Notes Line
	3250 2000 3250 750 
$Comp
L +VDC #PWR06
U 1 1 5A5FC2B5
P 3500 1050
F 0 "#PWR06" H 3500 950 50  0001 C CNN
F 1 "+VDC" V 3350 1200 50  0000 C CNN
F 2 "" H 3500 1050 50  0001 C CNN
F 3 "" H 3500 1050 50  0001 C CNN
	1    3500 1050
	0    -1   -1   0   
$EndComp
$Comp
L Conn_01x06 J1
U 1 1 5A5FC8A2
P 3150 3200
F 0 "J1" H 3150 3500 50  0000 C CNN
F 1 "Conn_01x06" H 3150 2800 50  0000 C CNN
F 2 "Pin_Headers:Pin_Header_Straight_1x06_Pitch2.54mm" H 3150 3200 50  0001 C CNN
F 3 "" H 3150 3200 50  0001 C CNN
	1    3150 3200
	1    0    0    -1  
$EndComp
Text GLabel 3800 3000 0    43   Input ~ 0
D2
Text GLabel 3800 3100 0    43   Input ~ 0
D3
Text GLabel 3800 3200 0    43   Input ~ 0
D4
Text GLabel 3800 3300 0    43   Input ~ 0
D5
Text GLabel 3800 3400 0    43   Input ~ 0
D6
Text GLabel 3800 3500 0    43   Input ~ 0
D7
Text GLabel 2950 3000 0    43   Input ~ 0
D2
Text GLabel 2950 3100 0    43   Input ~ 0
D3
Text GLabel 2950 3200 0    43   Input ~ 0
D4
Text GLabel 2950 3300 0    43   Input ~ 0
D5
Text GLabel 2950 3400 0    43   Input ~ 0
D6
Text GLabel 2950 3500 0    43   Input ~ 0
D7
$EndSCHEMATC
