(kicad_pcb (version 4) (host pcbnew 4.0.7-e2-6376~58~ubuntu17.04.1)

  (general
    (links 14)
    (no_connects 14)
    (area 0 0 0 0)
    (thickness 1.6)
    (drawings 0)
    (tracks 0)
    (zones 0)
    (modules 7)
    (nets 32)
  )

  (page A4)
  (layers
    (0 F.Cu signal)
    (31 B.Cu signal)
    (32 B.Adhes user)
    (33 F.Adhes user)
    (34 B.Paste user)
    (35 F.Paste user)
    (36 B.SilkS user)
    (37 F.SilkS user)
    (38 B.Mask user)
    (39 F.Mask user)
    (40 Dwgs.User user)
    (41 Cmts.User user)
    (42 Eco1.User user)
    (43 Eco2.User user)
    (44 Edge.Cuts user)
    (45 Margin user)
    (46 B.CrtYd user)
    (47 F.CrtYd user)
    (48 B.Fab user)
    (49 F.Fab user)
  )

  (setup
    (last_trace_width 0.25)
    (trace_clearance 0.2)
    (zone_clearance 0.508)
    (zone_45_only no)
    (trace_min 0.2)
    (segment_width 0.2)
    (edge_width 0.15)
    (via_size 0.6)
    (via_drill 0.4)
    (via_min_size 0.4)
    (via_min_drill 0.3)
    (uvia_size 0.3)
    (uvia_drill 0.1)
    (uvias_allowed no)
    (uvia_min_size 0.2)
    (uvia_min_drill 0.1)
    (pcb_text_width 0.3)
    (pcb_text_size 1.5 1.5)
    (mod_edge_width 0.15)
    (mod_text_size 1 1)
    (mod_text_width 0.15)
    (pad_size 1.524 1.524)
    (pad_drill 0.762)
    (pad_to_mask_clearance 0.2)
    (aux_axis_origin 0 0)
    (visible_elements FFFFFF7F)
    (pcbplotparams
      (layerselection 0x00030_80000001)
      (usegerberextensions false)
      (excludeedgelayer true)
      (linewidth 0.100000)
      (plotframeref false)
      (viasonmask false)
      (mode 1)
      (useauxorigin false)
      (hpglpennumber 1)
      (hpglpenspeed 20)
      (hpglpendiameter 15)
      (hpglpenoverlay 2)
      (psnegative false)
      (psa4output false)
      (plotreference true)
      (plotvalue true)
      (plotinvisibletext false)
      (padsonsilk false)
      (subtractmaskfromsilk false)
      (outputformat 1)
      (mirror false)
      (drillshape 1)
      (scaleselection 1)
      (outputdirectory ""))
  )

  (net 0 "")
  (net 1 "Net-(C1-Pad1)")
  (net 2 GND)
  (net 3 "Net-(C2-Pad1)")
  (net 4 "Net-(D1-Pad1)")
  (net 5 D2)
  (net 6 D3)
  (net 7 D4)
  (net 8 D5)
  (net 9 D6)
  (net 10 D7)
  (net 11 "Net-(MCU1-Pad7)")
  (net 12 "Net-(MCU1-Pad8)")
  (net 13 "Net-(MCU1-Pad9)")
  (net 14 "Net-(MCU1-Pad10)")
  (net 15 "Net-(MCU1-Pad17)")
  (net 16 "Net-(MCU1-Pad18)")
  (net 17 "Net-(MCU1-Pad19)")
  (net 18 "Net-(MCU1-Pad20)")
  (net 19 "Net-(MCU1-Pad21)")
  (net 20 "Net-(MCU1-Pad22)")
  (net 21 "Net-(MCU1-Pad23)")
  (net 22 "Net-(MCU1-Pad24)")
  (net 23 "Net-(MCU1-Pad25)")
  (net 24 "Net-(MCU1-Pad26)")
  (net 25 "Net-(MCU1-Pad27)")
  (net 26 "Net-(MCU1-Pad28)")
  (net 27 "Net-(MCU1-Pad29)")
  (net 28 "Net-(MCU1-Pad30)")
  (net 29 "Net-(MCU1-Pad31)")
  (net 30 "Net-(MCU1-Pad32)")
  (net 31 +VDC)

  (net_class Default "This is the default net class."
    (clearance 0.2)
    (trace_width 0.25)
    (via_dia 0.6)
    (via_drill 0.4)
    (uvia_dia 0.3)
    (uvia_drill 0.1)
    (add_net +VDC)
    (add_net D2)
    (add_net D3)
    (add_net D4)
    (add_net D5)
    (add_net D6)
    (add_net D7)
    (add_net GND)
    (add_net "Net-(C1-Pad1)")
    (add_net "Net-(C2-Pad1)")
    (add_net "Net-(D1-Pad1)")
    (add_net "Net-(MCU1-Pad10)")
    (add_net "Net-(MCU1-Pad17)")
    (add_net "Net-(MCU1-Pad18)")
    (add_net "Net-(MCU1-Pad19)")
    (add_net "Net-(MCU1-Pad20)")
    (add_net "Net-(MCU1-Pad21)")
    (add_net "Net-(MCU1-Pad22)")
    (add_net "Net-(MCU1-Pad23)")
    (add_net "Net-(MCU1-Pad24)")
    (add_net "Net-(MCU1-Pad25)")
    (add_net "Net-(MCU1-Pad26)")
    (add_net "Net-(MCU1-Pad27)")
    (add_net "Net-(MCU1-Pad28)")
    (add_net "Net-(MCU1-Pad29)")
    (add_net "Net-(MCU1-Pad30)")
    (add_net "Net-(MCU1-Pad31)")
    (add_net "Net-(MCU1-Pad32)")
    (add_net "Net-(MCU1-Pad7)")
    (add_net "Net-(MCU1-Pad8)")
    (add_net "Net-(MCU1-Pad9)")
  )

  (module Capacitors_THT:CP_Radial_D8.0mm_P3.50mm (layer F.Cu) (tedit 597BC7C2) (tstamp 5A5FBB1D)
    (at 203.2 86.36)
    (descr "CP, Radial series, Radial, pin pitch=3.50mm, , diameter=8mm, Electrolytic Capacitor")
    (tags "CP Radial series Radial pin pitch 3.50mm  diameter 8mm Electrolytic Capacitor")
    (path /5A5FB6A1)
    (fp_text reference C1 (at 1.75 -5.31) (layer F.SilkS)
      (effects (font (size 1 1) (thickness 0.15)))
    )
    (fp_text value 100µH (at 1.75 5.31) (layer F.Fab)
      (effects (font (size 1 1) (thickness 0.15)))
    )
    (fp_circle (center 1.75 0) (end 5.75 0) (layer F.Fab) (width 0.1))
    (fp_circle (center 1.75 0) (end 5.84 0) (layer F.SilkS) (width 0.12))
    (fp_line (start -2.2 0) (end -1 0) (layer F.Fab) (width 0.1))
    (fp_line (start -1.6 -0.65) (end -1.6 0.65) (layer F.Fab) (width 0.1))
    (fp_line (start 1.75 -4.05) (end 1.75 4.05) (layer F.SilkS) (width 0.12))
    (fp_line (start 1.79 -4.05) (end 1.79 4.05) (layer F.SilkS) (width 0.12))
    (fp_line (start 1.83 -4.05) (end 1.83 4.05) (layer F.SilkS) (width 0.12))
    (fp_line (start 1.87 -4.049) (end 1.87 4.049) (layer F.SilkS) (width 0.12))
    (fp_line (start 1.91 -4.047) (end 1.91 4.047) (layer F.SilkS) (width 0.12))
    (fp_line (start 1.95 -4.046) (end 1.95 4.046) (layer F.SilkS) (width 0.12))
    (fp_line (start 1.99 -4.043) (end 1.99 4.043) (layer F.SilkS) (width 0.12))
    (fp_line (start 2.03 -4.041) (end 2.03 4.041) (layer F.SilkS) (width 0.12))
    (fp_line (start 2.07 -4.038) (end 2.07 4.038) (layer F.SilkS) (width 0.12))
    (fp_line (start 2.11 -4.035) (end 2.11 4.035) (layer F.SilkS) (width 0.12))
    (fp_line (start 2.15 -4.031) (end 2.15 4.031) (layer F.SilkS) (width 0.12))
    (fp_line (start 2.19 -4.027) (end 2.19 4.027) (layer F.SilkS) (width 0.12))
    (fp_line (start 2.23 -4.022) (end 2.23 4.022) (layer F.SilkS) (width 0.12))
    (fp_line (start 2.27 -4.017) (end 2.27 4.017) (layer F.SilkS) (width 0.12))
    (fp_line (start 2.31 -4.012) (end 2.31 4.012) (layer F.SilkS) (width 0.12))
    (fp_line (start 2.35 -4.006) (end 2.35 4.006) (layer F.SilkS) (width 0.12))
    (fp_line (start 2.39 -4) (end 2.39 4) (layer F.SilkS) (width 0.12))
    (fp_line (start 2.43 -3.994) (end 2.43 3.994) (layer F.SilkS) (width 0.12))
    (fp_line (start 2.471 -3.987) (end 2.471 3.987) (layer F.SilkS) (width 0.12))
    (fp_line (start 2.511 -3.979) (end 2.511 3.979) (layer F.SilkS) (width 0.12))
    (fp_line (start 2.551 -3.971) (end 2.551 -0.98) (layer F.SilkS) (width 0.12))
    (fp_line (start 2.551 0.98) (end 2.551 3.971) (layer F.SilkS) (width 0.12))
    (fp_line (start 2.591 -3.963) (end 2.591 -0.98) (layer F.SilkS) (width 0.12))
    (fp_line (start 2.591 0.98) (end 2.591 3.963) (layer F.SilkS) (width 0.12))
    (fp_line (start 2.631 -3.955) (end 2.631 -0.98) (layer F.SilkS) (width 0.12))
    (fp_line (start 2.631 0.98) (end 2.631 3.955) (layer F.SilkS) (width 0.12))
    (fp_line (start 2.671 -3.946) (end 2.671 -0.98) (layer F.SilkS) (width 0.12))
    (fp_line (start 2.671 0.98) (end 2.671 3.946) (layer F.SilkS) (width 0.12))
    (fp_line (start 2.711 -3.936) (end 2.711 -0.98) (layer F.SilkS) (width 0.12))
    (fp_line (start 2.711 0.98) (end 2.711 3.936) (layer F.SilkS) (width 0.12))
    (fp_line (start 2.751 -3.926) (end 2.751 -0.98) (layer F.SilkS) (width 0.12))
    (fp_line (start 2.751 0.98) (end 2.751 3.926) (layer F.SilkS) (width 0.12))
    (fp_line (start 2.791 -3.916) (end 2.791 -0.98) (layer F.SilkS) (width 0.12))
    (fp_line (start 2.791 0.98) (end 2.791 3.916) (layer F.SilkS) (width 0.12))
    (fp_line (start 2.831 -3.905) (end 2.831 -0.98) (layer F.SilkS) (width 0.12))
    (fp_line (start 2.831 0.98) (end 2.831 3.905) (layer F.SilkS) (width 0.12))
    (fp_line (start 2.871 -3.894) (end 2.871 -0.98) (layer F.SilkS) (width 0.12))
    (fp_line (start 2.871 0.98) (end 2.871 3.894) (layer F.SilkS) (width 0.12))
    (fp_line (start 2.911 -3.883) (end 2.911 -0.98) (layer F.SilkS) (width 0.12))
    (fp_line (start 2.911 0.98) (end 2.911 3.883) (layer F.SilkS) (width 0.12))
    (fp_line (start 2.951 -3.87) (end 2.951 -0.98) (layer F.SilkS) (width 0.12))
    (fp_line (start 2.951 0.98) (end 2.951 3.87) (layer F.SilkS) (width 0.12))
    (fp_line (start 2.991 -3.858) (end 2.991 -0.98) (layer F.SilkS) (width 0.12))
    (fp_line (start 2.991 0.98) (end 2.991 3.858) (layer F.SilkS) (width 0.12))
    (fp_line (start 3.031 -3.845) (end 3.031 -0.98) (layer F.SilkS) (width 0.12))
    (fp_line (start 3.031 0.98) (end 3.031 3.845) (layer F.SilkS) (width 0.12))
    (fp_line (start 3.071 -3.832) (end 3.071 -0.98) (layer F.SilkS) (width 0.12))
    (fp_line (start 3.071 0.98) (end 3.071 3.832) (layer F.SilkS) (width 0.12))
    (fp_line (start 3.111 -3.818) (end 3.111 -0.98) (layer F.SilkS) (width 0.12))
    (fp_line (start 3.111 0.98) (end 3.111 3.818) (layer F.SilkS) (width 0.12))
    (fp_line (start 3.151 -3.803) (end 3.151 -0.98) (layer F.SilkS) (width 0.12))
    (fp_line (start 3.151 0.98) (end 3.151 3.803) (layer F.SilkS) (width 0.12))
    (fp_line (start 3.191 -3.789) (end 3.191 -0.98) (layer F.SilkS) (width 0.12))
    (fp_line (start 3.191 0.98) (end 3.191 3.789) (layer F.SilkS) (width 0.12))
    (fp_line (start 3.231 -3.773) (end 3.231 -0.98) (layer F.SilkS) (width 0.12))
    (fp_line (start 3.231 0.98) (end 3.231 3.773) (layer F.SilkS) (width 0.12))
    (fp_line (start 3.271 -3.758) (end 3.271 -0.98) (layer F.SilkS) (width 0.12))
    (fp_line (start 3.271 0.98) (end 3.271 3.758) (layer F.SilkS) (width 0.12))
    (fp_line (start 3.311 -3.741) (end 3.311 -0.98) (layer F.SilkS) (width 0.12))
    (fp_line (start 3.311 0.98) (end 3.311 3.741) (layer F.SilkS) (width 0.12))
    (fp_line (start 3.351 -3.725) (end 3.351 -0.98) (layer F.SilkS) (width 0.12))
    (fp_line (start 3.351 0.98) (end 3.351 3.725) (layer F.SilkS) (width 0.12))
    (fp_line (start 3.391 -3.707) (end 3.391 -0.98) (layer F.SilkS) (width 0.12))
    (fp_line (start 3.391 0.98) (end 3.391 3.707) (layer F.SilkS) (width 0.12))
    (fp_line (start 3.431 -3.69) (end 3.431 -0.98) (layer F.SilkS) (width 0.12))
    (fp_line (start 3.431 0.98) (end 3.431 3.69) (layer F.SilkS) (width 0.12))
    (fp_line (start 3.471 -3.671) (end 3.471 -0.98) (layer F.SilkS) (width 0.12))
    (fp_line (start 3.471 0.98) (end 3.471 3.671) (layer F.SilkS) (width 0.12))
    (fp_line (start 3.511 -3.652) (end 3.511 -0.98) (layer F.SilkS) (width 0.12))
    (fp_line (start 3.511 0.98) (end 3.511 3.652) (layer F.SilkS) (width 0.12))
    (fp_line (start 3.551 -3.633) (end 3.551 -0.98) (layer F.SilkS) (width 0.12))
    (fp_line (start 3.551 0.98) (end 3.551 3.633) (layer F.SilkS) (width 0.12))
    (fp_line (start 3.591 -3.613) (end 3.591 -0.98) (layer F.SilkS) (width 0.12))
    (fp_line (start 3.591 0.98) (end 3.591 3.613) (layer F.SilkS) (width 0.12))
    (fp_line (start 3.631 -3.593) (end 3.631 -0.98) (layer F.SilkS) (width 0.12))
    (fp_line (start 3.631 0.98) (end 3.631 3.593) (layer F.SilkS) (width 0.12))
    (fp_line (start 3.671 -3.572) (end 3.671 -0.98) (layer F.SilkS) (width 0.12))
    (fp_line (start 3.671 0.98) (end 3.671 3.572) (layer F.SilkS) (width 0.12))
    (fp_line (start 3.711 -3.55) (end 3.711 -0.98) (layer F.SilkS) (width 0.12))
    (fp_line (start 3.711 0.98) (end 3.711 3.55) (layer F.SilkS) (width 0.12))
    (fp_line (start 3.751 -3.528) (end 3.751 -0.98) (layer F.SilkS) (width 0.12))
    (fp_line (start 3.751 0.98) (end 3.751 3.528) (layer F.SilkS) (width 0.12))
    (fp_line (start 3.791 -3.505) (end 3.791 -0.98) (layer F.SilkS) (width 0.12))
    (fp_line (start 3.791 0.98) (end 3.791 3.505) (layer F.SilkS) (width 0.12))
    (fp_line (start 3.831 -3.482) (end 3.831 -0.98) (layer F.SilkS) (width 0.12))
    (fp_line (start 3.831 0.98) (end 3.831 3.482) (layer F.SilkS) (width 0.12))
    (fp_line (start 3.871 -3.458) (end 3.871 -0.98) (layer F.SilkS) (width 0.12))
    (fp_line (start 3.871 0.98) (end 3.871 3.458) (layer F.SilkS) (width 0.12))
    (fp_line (start 3.911 -3.434) (end 3.911 -0.98) (layer F.SilkS) (width 0.12))
    (fp_line (start 3.911 0.98) (end 3.911 3.434) (layer F.SilkS) (width 0.12))
    (fp_line (start 3.951 -3.408) (end 3.951 -0.98) (layer F.SilkS) (width 0.12))
    (fp_line (start 3.951 0.98) (end 3.951 3.408) (layer F.SilkS) (width 0.12))
    (fp_line (start 3.991 -3.383) (end 3.991 -0.98) (layer F.SilkS) (width 0.12))
    (fp_line (start 3.991 0.98) (end 3.991 3.383) (layer F.SilkS) (width 0.12))
    (fp_line (start 4.031 -3.356) (end 4.031 -0.98) (layer F.SilkS) (width 0.12))
    (fp_line (start 4.031 0.98) (end 4.031 3.356) (layer F.SilkS) (width 0.12))
    (fp_line (start 4.071 -3.329) (end 4.071 -0.98) (layer F.SilkS) (width 0.12))
    (fp_line (start 4.071 0.98) (end 4.071 3.329) (layer F.SilkS) (width 0.12))
    (fp_line (start 4.111 -3.301) (end 4.111 -0.98) (layer F.SilkS) (width 0.12))
    (fp_line (start 4.111 0.98) (end 4.111 3.301) (layer F.SilkS) (width 0.12))
    (fp_line (start 4.151 -3.272) (end 4.151 -0.98) (layer F.SilkS) (width 0.12))
    (fp_line (start 4.151 0.98) (end 4.151 3.272) (layer F.SilkS) (width 0.12))
    (fp_line (start 4.191 -3.243) (end 4.191 -0.98) (layer F.SilkS) (width 0.12))
    (fp_line (start 4.191 0.98) (end 4.191 3.243) (layer F.SilkS) (width 0.12))
    (fp_line (start 4.231 -3.213) (end 4.231 -0.98) (layer F.SilkS) (width 0.12))
    (fp_line (start 4.231 0.98) (end 4.231 3.213) (layer F.SilkS) (width 0.12))
    (fp_line (start 4.271 -3.182) (end 4.271 -0.98) (layer F.SilkS) (width 0.12))
    (fp_line (start 4.271 0.98) (end 4.271 3.182) (layer F.SilkS) (width 0.12))
    (fp_line (start 4.311 -3.15) (end 4.311 -0.98) (layer F.SilkS) (width 0.12))
    (fp_line (start 4.311 0.98) (end 4.311 3.15) (layer F.SilkS) (width 0.12))
    (fp_line (start 4.351 -3.118) (end 4.351 -0.98) (layer F.SilkS) (width 0.12))
    (fp_line (start 4.351 0.98) (end 4.351 3.118) (layer F.SilkS) (width 0.12))
    (fp_line (start 4.391 -3.084) (end 4.391 -0.98) (layer F.SilkS) (width 0.12))
    (fp_line (start 4.391 0.98) (end 4.391 3.084) (layer F.SilkS) (width 0.12))
    (fp_line (start 4.431 -3.05) (end 4.431 -0.98) (layer F.SilkS) (width 0.12))
    (fp_line (start 4.431 0.98) (end 4.431 3.05) (layer F.SilkS) (width 0.12))
    (fp_line (start 4.471 -3.015) (end 4.471 -0.98) (layer F.SilkS) (width 0.12))
    (fp_line (start 4.471 0.98) (end 4.471 3.015) (layer F.SilkS) (width 0.12))
    (fp_line (start 4.511 -2.979) (end 4.511 2.979) (layer F.SilkS) (width 0.12))
    (fp_line (start 4.551 -2.942) (end 4.551 2.942) (layer F.SilkS) (width 0.12))
    (fp_line (start 4.591 -2.904) (end 4.591 2.904) (layer F.SilkS) (width 0.12))
    (fp_line (start 4.631 -2.865) (end 4.631 2.865) (layer F.SilkS) (width 0.12))
    (fp_line (start 4.671 -2.824) (end 4.671 2.824) (layer F.SilkS) (width 0.12))
    (fp_line (start 4.711 -2.783) (end 4.711 2.783) (layer F.SilkS) (width 0.12))
    (fp_line (start 4.751 -2.74) (end 4.751 2.74) (layer F.SilkS) (width 0.12))
    (fp_line (start 4.791 -2.697) (end 4.791 2.697) (layer F.SilkS) (width 0.12))
    (fp_line (start 4.831 -2.652) (end 4.831 2.652) (layer F.SilkS) (width 0.12))
    (fp_line (start 4.871 -2.605) (end 4.871 2.605) (layer F.SilkS) (width 0.12))
    (fp_line (start 4.911 -2.557) (end 4.911 2.557) (layer F.SilkS) (width 0.12))
    (fp_line (start 4.951 -2.508) (end 4.951 2.508) (layer F.SilkS) (width 0.12))
    (fp_line (start 4.991 -2.457) (end 4.991 2.457) (layer F.SilkS) (width 0.12))
    (fp_line (start 5.031 -2.404) (end 5.031 2.404) (layer F.SilkS) (width 0.12))
    (fp_line (start 5.071 -2.349) (end 5.071 2.349) (layer F.SilkS) (width 0.12))
    (fp_line (start 5.111 -2.293) (end 5.111 2.293) (layer F.SilkS) (width 0.12))
    (fp_line (start 5.151 -2.234) (end 5.151 2.234) (layer F.SilkS) (width 0.12))
    (fp_line (start 5.191 -2.173) (end 5.191 2.173) (layer F.SilkS) (width 0.12))
    (fp_line (start 5.231 -2.109) (end 5.231 2.109) (layer F.SilkS) (width 0.12))
    (fp_line (start 5.271 -2.043) (end 5.271 2.043) (layer F.SilkS) (width 0.12))
    (fp_line (start 5.311 -1.974) (end 5.311 1.974) (layer F.SilkS) (width 0.12))
    (fp_line (start 5.351 -1.902) (end 5.351 1.902) (layer F.SilkS) (width 0.12))
    (fp_line (start 5.391 -1.826) (end 5.391 1.826) (layer F.SilkS) (width 0.12))
    (fp_line (start 5.431 -1.745) (end 5.431 1.745) (layer F.SilkS) (width 0.12))
    (fp_line (start 5.471 -1.66) (end 5.471 1.66) (layer F.SilkS) (width 0.12))
    (fp_line (start 5.511 -1.57) (end 5.511 1.57) (layer F.SilkS) (width 0.12))
    (fp_line (start 5.551 -1.473) (end 5.551 1.473) (layer F.SilkS) (width 0.12))
    (fp_line (start 5.591 -1.369) (end 5.591 1.369) (layer F.SilkS) (width 0.12))
    (fp_line (start 5.631 -1.254) (end 5.631 1.254) (layer F.SilkS) (width 0.12))
    (fp_line (start 5.671 -1.127) (end 5.671 1.127) (layer F.SilkS) (width 0.12))
    (fp_line (start 5.711 -0.983) (end 5.711 0.983) (layer F.SilkS) (width 0.12))
    (fp_line (start 5.751 -0.814) (end 5.751 0.814) (layer F.SilkS) (width 0.12))
    (fp_line (start 5.791 -0.598) (end 5.791 0.598) (layer F.SilkS) (width 0.12))
    (fp_line (start 5.831 -0.246) (end 5.831 0.246) (layer F.SilkS) (width 0.12))
    (fp_line (start -2.2 0) (end -1 0) (layer F.SilkS) (width 0.12))
    (fp_line (start -1.6 -0.65) (end -1.6 0.65) (layer F.SilkS) (width 0.12))
    (fp_line (start -2.6 -4.35) (end -2.6 4.35) (layer F.CrtYd) (width 0.05))
    (fp_line (start -2.6 4.35) (end 6.1 4.35) (layer F.CrtYd) (width 0.05))
    (fp_line (start 6.1 4.35) (end 6.1 -4.35) (layer F.CrtYd) (width 0.05))
    (fp_line (start 6.1 -4.35) (end -2.6 -4.35) (layer F.CrtYd) (width 0.05))
    (fp_text user %R (at 1.75 0) (layer F.Fab)
      (effects (font (size 1 1) (thickness 0.15)))
    )
    (pad 1 thru_hole rect (at 0 0) (size 1.6 1.6) (drill 0.8) (layers *.Cu *.Mask)
      (net 1 "Net-(C1-Pad1)"))
    (pad 2 thru_hole circle (at 3.5 0) (size 1.6 1.6) (drill 0.8) (layers *.Cu *.Mask)
      (net 2 GND))
    (model ${KISYS3DMOD}/Capacitors_THT.3dshapes/CP_Radial_D8.0mm_P3.50mm.wrl
      (at (xyz 0 0 0))
      (scale (xyz 1 1 1))
      (rotate (xyz 0 0 0))
    )
  )

  (module Capacitors_THT:CP_Radial_D8.0mm_P3.50mm (layer F.Cu) (tedit 597BC7C2) (tstamp 5A5FBB23)
    (at 173.99 86.36 180)
    (descr "CP, Radial series, Radial, pin pitch=3.50mm, , diameter=8mm, Electrolytic Capacitor")
    (tags "CP Radial series Radial pin pitch 3.50mm  diameter 8mm Electrolytic Capacitor")
    (path /5A5FBB02)
    (fp_text reference C2 (at 1.75 -5.31 180) (layer F.SilkS)
      (effects (font (size 1 1) (thickness 0.15)))
    )
    (fp_text value 330µH (at 1.75 5.31 180) (layer F.Fab)
      (effects (font (size 1 1) (thickness 0.15)))
    )
    (fp_circle (center 1.75 0) (end 5.75 0) (layer F.Fab) (width 0.1))
    (fp_circle (center 1.75 0) (end 5.84 0) (layer F.SilkS) (width 0.12))
    (fp_line (start -2.2 0) (end -1 0) (layer F.Fab) (width 0.1))
    (fp_line (start -1.6 -0.65) (end -1.6 0.65) (layer F.Fab) (width 0.1))
    (fp_line (start 1.75 -4.05) (end 1.75 4.05) (layer F.SilkS) (width 0.12))
    (fp_line (start 1.79 -4.05) (end 1.79 4.05) (layer F.SilkS) (width 0.12))
    (fp_line (start 1.83 -4.05) (end 1.83 4.05) (layer F.SilkS) (width 0.12))
    (fp_line (start 1.87 -4.049) (end 1.87 4.049) (layer F.SilkS) (width 0.12))
    (fp_line (start 1.91 -4.047) (end 1.91 4.047) (layer F.SilkS) (width 0.12))
    (fp_line (start 1.95 -4.046) (end 1.95 4.046) (layer F.SilkS) (width 0.12))
    (fp_line (start 1.99 -4.043) (end 1.99 4.043) (layer F.SilkS) (width 0.12))
    (fp_line (start 2.03 -4.041) (end 2.03 4.041) (layer F.SilkS) (width 0.12))
    (fp_line (start 2.07 -4.038) (end 2.07 4.038) (layer F.SilkS) (width 0.12))
    (fp_line (start 2.11 -4.035) (end 2.11 4.035) (layer F.SilkS) (width 0.12))
    (fp_line (start 2.15 -4.031) (end 2.15 4.031) (layer F.SilkS) (width 0.12))
    (fp_line (start 2.19 -4.027) (end 2.19 4.027) (layer F.SilkS) (width 0.12))
    (fp_line (start 2.23 -4.022) (end 2.23 4.022) (layer F.SilkS) (width 0.12))
    (fp_line (start 2.27 -4.017) (end 2.27 4.017) (layer F.SilkS) (width 0.12))
    (fp_line (start 2.31 -4.012) (end 2.31 4.012) (layer F.SilkS) (width 0.12))
    (fp_line (start 2.35 -4.006) (end 2.35 4.006) (layer F.SilkS) (width 0.12))
    (fp_line (start 2.39 -4) (end 2.39 4) (layer F.SilkS) (width 0.12))
    (fp_line (start 2.43 -3.994) (end 2.43 3.994) (layer F.SilkS) (width 0.12))
    (fp_line (start 2.471 -3.987) (end 2.471 3.987) (layer F.SilkS) (width 0.12))
    (fp_line (start 2.511 -3.979) (end 2.511 3.979) (layer F.SilkS) (width 0.12))
    (fp_line (start 2.551 -3.971) (end 2.551 -0.98) (layer F.SilkS) (width 0.12))
    (fp_line (start 2.551 0.98) (end 2.551 3.971) (layer F.SilkS) (width 0.12))
    (fp_line (start 2.591 -3.963) (end 2.591 -0.98) (layer F.SilkS) (width 0.12))
    (fp_line (start 2.591 0.98) (end 2.591 3.963) (layer F.SilkS) (width 0.12))
    (fp_line (start 2.631 -3.955) (end 2.631 -0.98) (layer F.SilkS) (width 0.12))
    (fp_line (start 2.631 0.98) (end 2.631 3.955) (layer F.SilkS) (width 0.12))
    (fp_line (start 2.671 -3.946) (end 2.671 -0.98) (layer F.SilkS) (width 0.12))
    (fp_line (start 2.671 0.98) (end 2.671 3.946) (layer F.SilkS) (width 0.12))
    (fp_line (start 2.711 -3.936) (end 2.711 -0.98) (layer F.SilkS) (width 0.12))
    (fp_line (start 2.711 0.98) (end 2.711 3.936) (layer F.SilkS) (width 0.12))
    (fp_line (start 2.751 -3.926) (end 2.751 -0.98) (layer F.SilkS) (width 0.12))
    (fp_line (start 2.751 0.98) (end 2.751 3.926) (layer F.SilkS) (width 0.12))
    (fp_line (start 2.791 -3.916) (end 2.791 -0.98) (layer F.SilkS) (width 0.12))
    (fp_line (start 2.791 0.98) (end 2.791 3.916) (layer F.SilkS) (width 0.12))
    (fp_line (start 2.831 -3.905) (end 2.831 -0.98) (layer F.SilkS) (width 0.12))
    (fp_line (start 2.831 0.98) (end 2.831 3.905) (layer F.SilkS) (width 0.12))
    (fp_line (start 2.871 -3.894) (end 2.871 -0.98) (layer F.SilkS) (width 0.12))
    (fp_line (start 2.871 0.98) (end 2.871 3.894) (layer F.SilkS) (width 0.12))
    (fp_line (start 2.911 -3.883) (end 2.911 -0.98) (layer F.SilkS) (width 0.12))
    (fp_line (start 2.911 0.98) (end 2.911 3.883) (layer F.SilkS) (width 0.12))
    (fp_line (start 2.951 -3.87) (end 2.951 -0.98) (layer F.SilkS) (width 0.12))
    (fp_line (start 2.951 0.98) (end 2.951 3.87) (layer F.SilkS) (width 0.12))
    (fp_line (start 2.991 -3.858) (end 2.991 -0.98) (layer F.SilkS) (width 0.12))
    (fp_line (start 2.991 0.98) (end 2.991 3.858) (layer F.SilkS) (width 0.12))
    (fp_line (start 3.031 -3.845) (end 3.031 -0.98) (layer F.SilkS) (width 0.12))
    (fp_line (start 3.031 0.98) (end 3.031 3.845) (layer F.SilkS) (width 0.12))
    (fp_line (start 3.071 -3.832) (end 3.071 -0.98) (layer F.SilkS) (width 0.12))
    (fp_line (start 3.071 0.98) (end 3.071 3.832) (layer F.SilkS) (width 0.12))
    (fp_line (start 3.111 -3.818) (end 3.111 -0.98) (layer F.SilkS) (width 0.12))
    (fp_line (start 3.111 0.98) (end 3.111 3.818) (layer F.SilkS) (width 0.12))
    (fp_line (start 3.151 -3.803) (end 3.151 -0.98) (layer F.SilkS) (width 0.12))
    (fp_line (start 3.151 0.98) (end 3.151 3.803) (layer F.SilkS) (width 0.12))
    (fp_line (start 3.191 -3.789) (end 3.191 -0.98) (layer F.SilkS) (width 0.12))
    (fp_line (start 3.191 0.98) (end 3.191 3.789) (layer F.SilkS) (width 0.12))
    (fp_line (start 3.231 -3.773) (end 3.231 -0.98) (layer F.SilkS) (width 0.12))
    (fp_line (start 3.231 0.98) (end 3.231 3.773) (layer F.SilkS) (width 0.12))
    (fp_line (start 3.271 -3.758) (end 3.271 -0.98) (layer F.SilkS) (width 0.12))
    (fp_line (start 3.271 0.98) (end 3.271 3.758) (layer F.SilkS) (width 0.12))
    (fp_line (start 3.311 -3.741) (end 3.311 -0.98) (layer F.SilkS) (width 0.12))
    (fp_line (start 3.311 0.98) (end 3.311 3.741) (layer F.SilkS) (width 0.12))
    (fp_line (start 3.351 -3.725) (end 3.351 -0.98) (layer F.SilkS) (width 0.12))
    (fp_line (start 3.351 0.98) (end 3.351 3.725) (layer F.SilkS) (width 0.12))
    (fp_line (start 3.391 -3.707) (end 3.391 -0.98) (layer F.SilkS) (width 0.12))
    (fp_line (start 3.391 0.98) (end 3.391 3.707) (layer F.SilkS) (width 0.12))
    (fp_line (start 3.431 -3.69) (end 3.431 -0.98) (layer F.SilkS) (width 0.12))
    (fp_line (start 3.431 0.98) (end 3.431 3.69) (layer F.SilkS) (width 0.12))
    (fp_line (start 3.471 -3.671) (end 3.471 -0.98) (layer F.SilkS) (width 0.12))
    (fp_line (start 3.471 0.98) (end 3.471 3.671) (layer F.SilkS) (width 0.12))
    (fp_line (start 3.511 -3.652) (end 3.511 -0.98) (layer F.SilkS) (width 0.12))
    (fp_line (start 3.511 0.98) (end 3.511 3.652) (layer F.SilkS) (width 0.12))
    (fp_line (start 3.551 -3.633) (end 3.551 -0.98) (layer F.SilkS) (width 0.12))
    (fp_line (start 3.551 0.98) (end 3.551 3.633) (layer F.SilkS) (width 0.12))
    (fp_line (start 3.591 -3.613) (end 3.591 -0.98) (layer F.SilkS) (width 0.12))
    (fp_line (start 3.591 0.98) (end 3.591 3.613) (layer F.SilkS) (width 0.12))
    (fp_line (start 3.631 -3.593) (end 3.631 -0.98) (layer F.SilkS) (width 0.12))
    (fp_line (start 3.631 0.98) (end 3.631 3.593) (layer F.SilkS) (width 0.12))
    (fp_line (start 3.671 -3.572) (end 3.671 -0.98) (layer F.SilkS) (width 0.12))
    (fp_line (start 3.671 0.98) (end 3.671 3.572) (layer F.SilkS) (width 0.12))
    (fp_line (start 3.711 -3.55) (end 3.711 -0.98) (layer F.SilkS) (width 0.12))
    (fp_line (start 3.711 0.98) (end 3.711 3.55) (layer F.SilkS) (width 0.12))
    (fp_line (start 3.751 -3.528) (end 3.751 -0.98) (layer F.SilkS) (width 0.12))
    (fp_line (start 3.751 0.98) (end 3.751 3.528) (layer F.SilkS) (width 0.12))
    (fp_line (start 3.791 -3.505) (end 3.791 -0.98) (layer F.SilkS) (width 0.12))
    (fp_line (start 3.791 0.98) (end 3.791 3.505) (layer F.SilkS) (width 0.12))
    (fp_line (start 3.831 -3.482) (end 3.831 -0.98) (layer F.SilkS) (width 0.12))
    (fp_line (start 3.831 0.98) (end 3.831 3.482) (layer F.SilkS) (width 0.12))
    (fp_line (start 3.871 -3.458) (end 3.871 -0.98) (layer F.SilkS) (width 0.12))
    (fp_line (start 3.871 0.98) (end 3.871 3.458) (layer F.SilkS) (width 0.12))
    (fp_line (start 3.911 -3.434) (end 3.911 -0.98) (layer F.SilkS) (width 0.12))
    (fp_line (start 3.911 0.98) (end 3.911 3.434) (layer F.SilkS) (width 0.12))
    (fp_line (start 3.951 -3.408) (end 3.951 -0.98) (layer F.SilkS) (width 0.12))
    (fp_line (start 3.951 0.98) (end 3.951 3.408) (layer F.SilkS) (width 0.12))
    (fp_line (start 3.991 -3.383) (end 3.991 -0.98) (layer F.SilkS) (width 0.12))
    (fp_line (start 3.991 0.98) (end 3.991 3.383) (layer F.SilkS) (width 0.12))
    (fp_line (start 4.031 -3.356) (end 4.031 -0.98) (layer F.SilkS) (width 0.12))
    (fp_line (start 4.031 0.98) (end 4.031 3.356) (layer F.SilkS) (width 0.12))
    (fp_line (start 4.071 -3.329) (end 4.071 -0.98) (layer F.SilkS) (width 0.12))
    (fp_line (start 4.071 0.98) (end 4.071 3.329) (layer F.SilkS) (width 0.12))
    (fp_line (start 4.111 -3.301) (end 4.111 -0.98) (layer F.SilkS) (width 0.12))
    (fp_line (start 4.111 0.98) (end 4.111 3.301) (layer F.SilkS) (width 0.12))
    (fp_line (start 4.151 -3.272) (end 4.151 -0.98) (layer F.SilkS) (width 0.12))
    (fp_line (start 4.151 0.98) (end 4.151 3.272) (layer F.SilkS) (width 0.12))
    (fp_line (start 4.191 -3.243) (end 4.191 -0.98) (layer F.SilkS) (width 0.12))
    (fp_line (start 4.191 0.98) (end 4.191 3.243) (layer F.SilkS) (width 0.12))
    (fp_line (start 4.231 -3.213) (end 4.231 -0.98) (layer F.SilkS) (width 0.12))
    (fp_line (start 4.231 0.98) (end 4.231 3.213) (layer F.SilkS) (width 0.12))
    (fp_line (start 4.271 -3.182) (end 4.271 -0.98) (layer F.SilkS) (width 0.12))
    (fp_line (start 4.271 0.98) (end 4.271 3.182) (layer F.SilkS) (width 0.12))
    (fp_line (start 4.311 -3.15) (end 4.311 -0.98) (layer F.SilkS) (width 0.12))
    (fp_line (start 4.311 0.98) (end 4.311 3.15) (layer F.SilkS) (width 0.12))
    (fp_line (start 4.351 -3.118) (end 4.351 -0.98) (layer F.SilkS) (width 0.12))
    (fp_line (start 4.351 0.98) (end 4.351 3.118) (layer F.SilkS) (width 0.12))
    (fp_line (start 4.391 -3.084) (end 4.391 -0.98) (layer F.SilkS) (width 0.12))
    (fp_line (start 4.391 0.98) (end 4.391 3.084) (layer F.SilkS) (width 0.12))
    (fp_line (start 4.431 -3.05) (end 4.431 -0.98) (layer F.SilkS) (width 0.12))
    (fp_line (start 4.431 0.98) (end 4.431 3.05) (layer F.SilkS) (width 0.12))
    (fp_line (start 4.471 -3.015) (end 4.471 -0.98) (layer F.SilkS) (width 0.12))
    (fp_line (start 4.471 0.98) (end 4.471 3.015) (layer F.SilkS) (width 0.12))
    (fp_line (start 4.511 -2.979) (end 4.511 2.979) (layer F.SilkS) (width 0.12))
    (fp_line (start 4.551 -2.942) (end 4.551 2.942) (layer F.SilkS) (width 0.12))
    (fp_line (start 4.591 -2.904) (end 4.591 2.904) (layer F.SilkS) (width 0.12))
    (fp_line (start 4.631 -2.865) (end 4.631 2.865) (layer F.SilkS) (width 0.12))
    (fp_line (start 4.671 -2.824) (end 4.671 2.824) (layer F.SilkS) (width 0.12))
    (fp_line (start 4.711 -2.783) (end 4.711 2.783) (layer F.SilkS) (width 0.12))
    (fp_line (start 4.751 -2.74) (end 4.751 2.74) (layer F.SilkS) (width 0.12))
    (fp_line (start 4.791 -2.697) (end 4.791 2.697) (layer F.SilkS) (width 0.12))
    (fp_line (start 4.831 -2.652) (end 4.831 2.652) (layer F.SilkS) (width 0.12))
    (fp_line (start 4.871 -2.605) (end 4.871 2.605) (layer F.SilkS) (width 0.12))
    (fp_line (start 4.911 -2.557) (end 4.911 2.557) (layer F.SilkS) (width 0.12))
    (fp_line (start 4.951 -2.508) (end 4.951 2.508) (layer F.SilkS) (width 0.12))
    (fp_line (start 4.991 -2.457) (end 4.991 2.457) (layer F.SilkS) (width 0.12))
    (fp_line (start 5.031 -2.404) (end 5.031 2.404) (layer F.SilkS) (width 0.12))
    (fp_line (start 5.071 -2.349) (end 5.071 2.349) (layer F.SilkS) (width 0.12))
    (fp_line (start 5.111 -2.293) (end 5.111 2.293) (layer F.SilkS) (width 0.12))
    (fp_line (start 5.151 -2.234) (end 5.151 2.234) (layer F.SilkS) (width 0.12))
    (fp_line (start 5.191 -2.173) (end 5.191 2.173) (layer F.SilkS) (width 0.12))
    (fp_line (start 5.231 -2.109) (end 5.231 2.109) (layer F.SilkS) (width 0.12))
    (fp_line (start 5.271 -2.043) (end 5.271 2.043) (layer F.SilkS) (width 0.12))
    (fp_line (start 5.311 -1.974) (end 5.311 1.974) (layer F.SilkS) (width 0.12))
    (fp_line (start 5.351 -1.902) (end 5.351 1.902) (layer F.SilkS) (width 0.12))
    (fp_line (start 5.391 -1.826) (end 5.391 1.826) (layer F.SilkS) (width 0.12))
    (fp_line (start 5.431 -1.745) (end 5.431 1.745) (layer F.SilkS) (width 0.12))
    (fp_line (start 5.471 -1.66) (end 5.471 1.66) (layer F.SilkS) (width 0.12))
    (fp_line (start 5.511 -1.57) (end 5.511 1.57) (layer F.SilkS) (width 0.12))
    (fp_line (start 5.551 -1.473) (end 5.551 1.473) (layer F.SilkS) (width 0.12))
    (fp_line (start 5.591 -1.369) (end 5.591 1.369) (layer F.SilkS) (width 0.12))
    (fp_line (start 5.631 -1.254) (end 5.631 1.254) (layer F.SilkS) (width 0.12))
    (fp_line (start 5.671 -1.127) (end 5.671 1.127) (layer F.SilkS) (width 0.12))
    (fp_line (start 5.711 -0.983) (end 5.711 0.983) (layer F.SilkS) (width 0.12))
    (fp_line (start 5.751 -0.814) (end 5.751 0.814) (layer F.SilkS) (width 0.12))
    (fp_line (start 5.791 -0.598) (end 5.791 0.598) (layer F.SilkS) (width 0.12))
    (fp_line (start 5.831 -0.246) (end 5.831 0.246) (layer F.SilkS) (width 0.12))
    (fp_line (start -2.2 0) (end -1 0) (layer F.SilkS) (width 0.12))
    (fp_line (start -1.6 -0.65) (end -1.6 0.65) (layer F.SilkS) (width 0.12))
    (fp_line (start -2.6 -4.35) (end -2.6 4.35) (layer F.CrtYd) (width 0.05))
    (fp_line (start -2.6 4.35) (end 6.1 4.35) (layer F.CrtYd) (width 0.05))
    (fp_line (start 6.1 4.35) (end 6.1 -4.35) (layer F.CrtYd) (width 0.05))
    (fp_line (start 6.1 -4.35) (end -2.6 -4.35) (layer F.CrtYd) (width 0.05))
    (fp_text user %R (at 1.75 0 180) (layer F.Fab)
      (effects (font (size 1 1) (thickness 0.15)))
    )
    (pad 1 thru_hole rect (at 0 0 180) (size 1.6 1.6) (drill 0.8) (layers *.Cu *.Mask)
      (net 3 "Net-(C2-Pad1)"))
    (pad 2 thru_hole circle (at 3.5 0 180) (size 1.6 1.6) (drill 0.8) (layers *.Cu *.Mask)
      (net 2 GND))
    (model ${KISYS3DMOD}/Capacitors_THT.3dshapes/CP_Radial_D8.0mm_P3.50mm.wrl
      (at (xyz 0 0 0))
      (scale (xyz 1 1 1))
      (rotate (xyz 0 0 0))
    )
  )

  (module Diodes_THT:D_A-405_P7.62mm_Horizontal (layer F.Cu) (tedit 5921392E) (tstamp 5A5FBB29)
    (at 185.42 99.06)
    (descr "D, A-405 series, Axial, Horizontal, pin pitch=7.62mm, , length*diameter=5.2*2.7mm^2, , http://www.diodes.com/_files/packages/A-405.pdf")
    (tags "D A-405 series Axial Horizontal pin pitch 7.62mm  length 5.2mm diameter 2.7mm")
    (path /5A5FBC86)
    (fp_text reference D1 (at 3.81 -2.41) (layer F.SilkS)
      (effects (font (size 1 1) (thickness 0.15)))
    )
    (fp_text value D_Schottky (at 3.81 2.41) (layer F.Fab)
      (effects (font (size 1 1) (thickness 0.15)))
    )
    (fp_text user %R (at 3.81 0) (layer F.Fab)
      (effects (font (size 1 1) (thickness 0.15)))
    )
    (fp_line (start 1.21 -1.35) (end 1.21 1.35) (layer F.Fab) (width 0.1))
    (fp_line (start 1.21 1.35) (end 6.41 1.35) (layer F.Fab) (width 0.1))
    (fp_line (start 6.41 1.35) (end 6.41 -1.35) (layer F.Fab) (width 0.1))
    (fp_line (start 6.41 -1.35) (end 1.21 -1.35) (layer F.Fab) (width 0.1))
    (fp_line (start 0 0) (end 1.21 0) (layer F.Fab) (width 0.1))
    (fp_line (start 7.62 0) (end 6.41 0) (layer F.Fab) (width 0.1))
    (fp_line (start 1.99 -1.35) (end 1.99 1.35) (layer F.Fab) (width 0.1))
    (fp_line (start 1.15 -1.41) (end 1.15 1.41) (layer F.SilkS) (width 0.12))
    (fp_line (start 1.15 1.41) (end 6.47 1.41) (layer F.SilkS) (width 0.12))
    (fp_line (start 6.47 1.41) (end 6.47 -1.41) (layer F.SilkS) (width 0.12))
    (fp_line (start 6.47 -1.41) (end 1.15 -1.41) (layer F.SilkS) (width 0.12))
    (fp_line (start 1.08 0) (end 1.15 0) (layer F.SilkS) (width 0.12))
    (fp_line (start 6.54 0) (end 6.47 0) (layer F.SilkS) (width 0.12))
    (fp_line (start 1.99 -1.41) (end 1.99 1.41) (layer F.SilkS) (width 0.12))
    (fp_line (start -1.15 -1.7) (end -1.15 1.7) (layer F.CrtYd) (width 0.05))
    (fp_line (start -1.15 1.7) (end 8.8 1.7) (layer F.CrtYd) (width 0.05))
    (fp_line (start 8.8 1.7) (end 8.8 -1.7) (layer F.CrtYd) (width 0.05))
    (fp_line (start 8.8 -1.7) (end -1.15 -1.7) (layer F.CrtYd) (width 0.05))
    (pad 1 thru_hole rect (at 0 0) (size 1.8 1.8) (drill 0.9) (layers *.Cu *.Mask)
      (net 4 "Net-(D1-Pad1)"))
    (pad 2 thru_hole oval (at 7.62 0) (size 1.8 1.8) (drill 0.9) (layers *.Cu *.Mask)
      (net 2 GND))
    (model ${KISYS3DMOD}/Diodes_THT.3dshapes/D_A-405_P7.62mm_Horizontal.wrl
      (at (xyz 0 0 0))
      (scale (xyz 0.393701 0.393701 0.393701))
      (rotate (xyz 0 0 0))
    )
  )

  (module Pin_Headers:Pin_Header_Straight_1x06_Pitch2.54mm (layer F.Cu) (tedit 59650532) (tstamp 5A5FBB33)
    (at 162.56 114.3)
    (descr "Through hole straight pin header, 1x06, 2.54mm pitch, single row")
    (tags "Through hole pin header THT 1x06 2.54mm single row")
    (path /5A5FC8A2)
    (fp_text reference J1 (at 0 -2.33) (layer F.SilkS)
      (effects (font (size 1 1) (thickness 0.15)))
    )
    (fp_text value Conn_01x06 (at 0 15.03) (layer F.Fab)
      (effects (font (size 1 1) (thickness 0.15)))
    )
    (fp_line (start -0.635 -1.27) (end 1.27 -1.27) (layer F.Fab) (width 0.1))
    (fp_line (start 1.27 -1.27) (end 1.27 13.97) (layer F.Fab) (width 0.1))
    (fp_line (start 1.27 13.97) (end -1.27 13.97) (layer F.Fab) (width 0.1))
    (fp_line (start -1.27 13.97) (end -1.27 -0.635) (layer F.Fab) (width 0.1))
    (fp_line (start -1.27 -0.635) (end -0.635 -1.27) (layer F.Fab) (width 0.1))
    (fp_line (start -1.33 14.03) (end 1.33 14.03) (layer F.SilkS) (width 0.12))
    (fp_line (start -1.33 1.27) (end -1.33 14.03) (layer F.SilkS) (width 0.12))
    (fp_line (start 1.33 1.27) (end 1.33 14.03) (layer F.SilkS) (width 0.12))
    (fp_line (start -1.33 1.27) (end 1.33 1.27) (layer F.SilkS) (width 0.12))
    (fp_line (start -1.33 0) (end -1.33 -1.33) (layer F.SilkS) (width 0.12))
    (fp_line (start -1.33 -1.33) (end 0 -1.33) (layer F.SilkS) (width 0.12))
    (fp_line (start -1.8 -1.8) (end -1.8 14.5) (layer F.CrtYd) (width 0.05))
    (fp_line (start -1.8 14.5) (end 1.8 14.5) (layer F.CrtYd) (width 0.05))
    (fp_line (start 1.8 14.5) (end 1.8 -1.8) (layer F.CrtYd) (width 0.05))
    (fp_line (start 1.8 -1.8) (end -1.8 -1.8) (layer F.CrtYd) (width 0.05))
    (fp_text user %R (at 0 6.35 90) (layer F.Fab)
      (effects (font (size 1 1) (thickness 0.15)))
    )
    (pad 1 thru_hole rect (at 0 0) (size 1.7 1.7) (drill 1) (layers *.Cu *.Mask)
      (net 5 D2))
    (pad 2 thru_hole oval (at 0 2.54) (size 1.7 1.7) (drill 1) (layers *.Cu *.Mask)
      (net 6 D3))
    (pad 3 thru_hole oval (at 0 5.08) (size 1.7 1.7) (drill 1) (layers *.Cu *.Mask)
      (net 7 D4))
    (pad 4 thru_hole oval (at 0 7.62) (size 1.7 1.7) (drill 1) (layers *.Cu *.Mask)
      (net 8 D5))
    (pad 5 thru_hole oval (at 0 10.16) (size 1.7 1.7) (drill 1) (layers *.Cu *.Mask)
      (net 9 D6))
    (pad 6 thru_hole oval (at 0 12.7) (size 1.7 1.7) (drill 1) (layers *.Cu *.Mask)
      (net 10 D7))
    (model ${KISYS3DMOD}/Pin_Headers.3dshapes/Pin_Header_Straight_1x06_Pitch2.54mm.wrl
      (at (xyz 0 0 0))
      (scale (xyz 1 1 1))
      (rotate (xyz 0 0 0))
    )
  )

  (module Inductors:INDUCTOR_V (layer F.Cu) (tedit 0) (tstamp 5A5FBB39)
    (at 204.47 96.52 270)
    (descr "Inductor (vertical)")
    (tags INDUCTOR)
    (path /5A5FBA01)
    (fp_text reference L1 (at 0 1.99898 270) (layer F.SilkS)
      (effects (font (size 1 1) (thickness 0.15)))
    )
    (fp_text value L (at 0.09906 -1.99898 270) (layer F.Fab)
      (effects (font (size 1 1) (thickness 0.15)))
    )
    (fp_circle (center 0 0) (end 3.81 0) (layer F.SilkS) (width 0.15))
    (pad 1 thru_hole rect (at -2.54 0 270) (size 1.905 1.905) (drill 0.8128) (layers *.Cu *.Mask)
      (net 3 "Net-(C2-Pad1)"))
    (pad 2 thru_hole circle (at 2.54 0 270) (size 1.905 1.905) (drill 0.8128) (layers *.Cu *.Mask)
      (net 4 "Net-(D1-Pad1)"))
    (model Inductors.3dshapes/INDUCTOR_V.wrl
      (at (xyz 0 0 0))
      (scale (xyz 2 2 2))
      (rotate (xyz 0 0 0))
    )
  )

  (module ArduProMiniTKB:ArduProMini-6 (layer F.Cu) (tedit 54CFF598) (tstamp 5A5FBB59)
    (at 179.07 97.79)
    (path /5A5FB2A1)
    (fp_text reference MCU1 (at 11.43 1.27) (layer F.SilkS)
      (effects (font (size 1.5 1.5) (thickness 0.15)))
    )
    (fp_text value ARDUPROMINI-6 (at 11.43 -1.27) (layer F.SilkS)
      (effects (font (size 1.5 1.5) (thickness 0.15)))
    )
    (pad 7 thru_hole circle (at 2.54 6.35) (size 1.524 1.524) (drill 0.762) (layers *.Cu *.Mask F.SilkS)
      (net 11 "Net-(MCU1-Pad7)"))
    (pad 8 thru_hole circle (at 2.54 8.89) (size 1.524 1.524) (drill 0.762) (layers *.Cu *.Mask F.SilkS)
      (net 12 "Net-(MCU1-Pad8)"))
    (pad 9 thru_hole circle (at 2.54 11.43) (size 1.524 1.524) (drill 0.762) (layers *.Cu *.Mask F.SilkS)
      (net 13 "Net-(MCU1-Pad9)"))
    (pad 10 thru_hole circle (at 2.54 13.97) (size 1.524 1.524) (drill 0.762) (layers *.Cu *.Mask F.SilkS)
      (net 14 "Net-(MCU1-Pad10)"))
    (pad 11 thru_hole circle (at 2.54 16.51) (size 1.524 1.524) (drill 0.762) (layers *.Cu *.Mask F.SilkS)
      (net 5 D2))
    (pad 12 thru_hole circle (at 2.54 19.05) (size 1.524 1.524) (drill 0.762) (layers *.Cu *.Mask F.SilkS)
      (net 6 D3))
    (pad 13 thru_hole circle (at 2.54 21.59) (size 1.524 1.524) (drill 0.762) (layers *.Cu *.Mask F.SilkS)
      (net 7 D4))
    (pad 14 thru_hole circle (at 2.54 24.13) (size 1.524 1.524) (drill 0.762) (layers *.Cu *.Mask F.SilkS)
      (net 8 D5))
    (pad 15 thru_hole circle (at 2.54 26.67) (size 1.524 1.524) (drill 0.762) (layers *.Cu *.Mask F.SilkS)
      (net 9 D6))
    (pad 16 thru_hole circle (at 2.54 29.21) (size 1.524 1.524) (drill 0.762) (layers *.Cu *.Mask F.SilkS)
      (net 10 D7))
    (pad 17 thru_hole circle (at 2.54 31.75) (size 1.524 1.524) (drill 0.762) (layers *.Cu *.Mask F.SilkS)
      (net 15 "Net-(MCU1-Pad17)"))
    (pad 18 thru_hole circle (at 2.54 34.29) (size 1.524 1.524) (drill 0.762) (layers *.Cu *.Mask F.SilkS)
      (net 16 "Net-(MCU1-Pad18)"))
    (pad 19 thru_hole circle (at 17.78 6.35) (size 1.524 1.524) (drill 0.762) (layers *.Cu *.Mask F.SilkS)
      (net 17 "Net-(MCU1-Pad19)"))
    (pad 20 thru_hole circle (at 17.78 8.89) (size 1.524 1.524) (drill 0.762) (layers *.Cu *.Mask F.SilkS)
      (net 18 "Net-(MCU1-Pad20)"))
    (pad 21 thru_hole circle (at 17.78 11.43) (size 1.524 1.524) (drill 0.762) (layers *.Cu *.Mask F.SilkS)
      (net 19 "Net-(MCU1-Pad21)"))
    (pad 22 thru_hole circle (at 17.78 13.97) (size 1.524 1.524) (drill 0.762) (layers *.Cu *.Mask F.SilkS)
      (net 20 "Net-(MCU1-Pad22)"))
    (pad 23 thru_hole circle (at 17.78 16.51) (size 1.524 1.524) (drill 0.762) (layers *.Cu *.Mask F.SilkS)
      (net 21 "Net-(MCU1-Pad23)"))
    (pad 24 thru_hole circle (at 17.78 19.05) (size 1.524 1.524) (drill 0.762) (layers *.Cu *.Mask F.SilkS)
      (net 22 "Net-(MCU1-Pad24)"))
    (pad 25 thru_hole circle (at 17.78 21.59) (size 1.524 1.524) (drill 0.762) (layers *.Cu *.Mask F.SilkS)
      (net 23 "Net-(MCU1-Pad25)"))
    (pad 26 thru_hole circle (at 17.78 24.13) (size 1.524 1.524) (drill 0.762) (layers *.Cu *.Mask F.SilkS)
      (net 24 "Net-(MCU1-Pad26)"))
    (pad 27 thru_hole circle (at 17.78 26.67) (size 1.524 1.524) (drill 0.762) (layers *.Cu *.Mask F.SilkS)
      (net 25 "Net-(MCU1-Pad27)"))
    (pad 28 thru_hole circle (at 17.78 29.21) (size 1.524 1.524) (drill 0.762) (layers *.Cu *.Mask F.SilkS)
      (net 26 "Net-(MCU1-Pad28)"))
    (pad 29 thru_hole circle (at 17.78 31.75) (size 1.524 1.524) (drill 0.762) (layers *.Cu *.Mask F.SilkS)
      (net 27 "Net-(MCU1-Pad29)"))
    (pad 30 thru_hole circle (at 17.78 34.29) (size 1.524 1.524) (drill 0.762) (layers *.Cu *.Mask F.SilkS)
      (net 28 "Net-(MCU1-Pad30)"))
    (pad 31 thru_hole circle (at 14.859 15.113) (size 1.5 1.5) (drill 0.6) (layers *.Cu *.Mask F.SilkS)
      (net 29 "Net-(MCU1-Pad31)"))
    (pad 32 thru_hole circle (at 14.859 17.653) (size 1.5 1.5) (drill 0.6) (layers *.Cu *.Mask F.SilkS)
      (net 30 "Net-(MCU1-Pad32)"))
    (pad 34 thru_hole circle (at 14.859 25.527) (size 1.5 1.5) (drill 0.6) (layers *.Cu *.Mask F.SilkS))
    (pad 35 thru_hole circle (at 14.859 28.067) (size 1.5 1.5) (drill 0.6) (layers *.Cu *.Mask F.SilkS))
  )

  (module lm2575:lm7805-with-heatsink (layer F.Cu) (tedit 5A5FBA9E) (tstamp 5A5FBB62)
    (at 187.96 92.71 90)
    (path /5A5FB50C)
    (solder_mask_margin 0.25)
    (solder_paste_margin -0.25)
    (clearance 0.25)
    (fp_text reference U1 (at 7.62 -7.62 90) (layer F.SilkS)
      (effects (font (size 1 1) (thickness 0.15)))
    )
    (fp_text value LM2575-5 (at 17.78 0 180) (layer F.Fab)
      (effects (font (size 1 1) (thickness 0.15)))
    )
    (fp_line (start 0 -10.16) (end 15.24 -10.16) (layer B.CrtYd) (width 0.15))
    (fp_line (start 15.24 -10.16) (end 15.24 10.16) (layer B.CrtYd) (width 0.15))
    (fp_line (start 15.24 10.16) (end -2.54 10.16) (layer B.CrtYd) (width 0.15))
    (fp_line (start -2.54 10.16) (end -2.54 -10.16) (layer B.CrtYd) (width 0.15))
    (fp_line (start -2.54 -10.16) (end 0 -10.16) (layer B.CrtYd) (width 0.15))
    (pad 3 thru_hole oval (at 0 0 90) (size 2.5 1.89) (drill 0.762) (layers *.Cu *.Mask)
      (net 2 GND))
    (pad 2 thru_hole oval (at 0 -2.54 90) (size 2.5 1.8) (drill 0.762) (layers *.Cu *.Mask)
      (net 4 "Net-(D1-Pad1)"))
    (pad 4 thru_hole oval (at 0 2.54 90) (size 2.5 1.8) (drill 0.762) (layers *.Cu *.Mask)
      (net 3 "Net-(C2-Pad1)"))
    (pad 1 thru_hole oval (at 0 -5.08 90) (size 2.5 1.8) (drill 0.762) (layers *.Cu *.Mask)
      (net 31 +VDC))
    (pad 5 thru_hole oval (at 0 5.08 90) (size 2.5 1.8) (drill 0.762) (layers *.Cu *.Mask)
      (net 2 GND))
  )

)
