(export (version D)
  (design
    (source /home/arnes/workspace/roboskopcnc/pcb/step1/step1.sch)
    (date "Prş 18 Oca 2018 00:07:24 +03")
    (tool "Eeschema 4.0.7-e2-6376~58~ubuntu17.04.1")
    (sheet (number 1) (name /) (tstamps /)
      (title_block
        (title)
        (company)
        (rev)
        (date)
        (source step1.sch)
        (comment (number 1) (value ""))
        (comment (number 2) (value ""))
        (comment (number 3) (value ""))
        (comment (number 4) (value "")))))
  (components
    (comp (ref MCU1)
      (value ARDUPROMINI-6)
      (footprint ArduProMiniTKB:ArduProMini-6)
      (libsource (lib ArduProMiniTKB) (part ARDUPROMINI-6))
      (sheetpath (names /) (tstamps /))
      (tstamp 5A5FB2A1))
    (comp (ref U1)
      (value LM2575-5)
      (footprint lm2575:lm7805-with-heatsink)
      (libsource (lib lm2575-5) (part LM2575-5))
      (sheetpath (names /) (tstamps /))
      (tstamp 5A5FB50C))
    (comp (ref C1)
      (value 100µH)
      (footprint Capacitors_THT:CP_Radial_D8.0mm_P3.50mm)
      (libsource (lib device) (part CP))
      (sheetpath (names /) (tstamps /))
      (tstamp 5A5FB6A1))
    (comp (ref L1)
      (value L)
      (footprint Inductors:INDUCTOR_V)
      (libsource (lib device) (part L))
      (sheetpath (names /) (tstamps /))
      (tstamp 5A5FBA01))
    (comp (ref C2)
      (value 330µH)
      (footprint Capacitors_THT:CP_Radial_D8.0mm_P3.50mm)
      (libsource (lib device) (part CP))
      (sheetpath (names /) (tstamps /))
      (tstamp 5A5FBB02))
    (comp (ref D1)
      (value D_Schottky)
      (footprint Diodes_THT:D_A-405_P7.62mm_Horizontal)
      (libsource (lib device) (part D_Schottky))
      (sheetpath (names /) (tstamps /))
      (tstamp 5A5FBC86))
    (comp (ref J1)
      (value Conn_01x06)
      (footprint Pin_Headers:Pin_Header_Straight_1x06_Pitch2.54mm)
      (libsource (lib conn) (part Conn_01x06))
      (sheetpath (names /) (tstamps /))
      (tstamp 5A5FC8A2)))
  (libparts
    (libpart (lib ArduProMiniTKB) (part ARDUPROMINI-6)
      (fields
        (field (name Reference) MiniPro)
        (field (name Value) ARDUPROMINI-6))
      (pins
        (pin (num 7) (name TX0) (type BiDi))
        (pin (num 8) (name RX1) (type BiDi))
        (pin (num 9) (name RESET) (type input))
        (pin (num 10) (name GND) (type unspc))
        (pin (num 11) (name D2) (type BiDi))
        (pin (num 12) (name D3) (type BiDi))
        (pin (num 13) (name D4) (type BiDi))
        (pin (num 14) (name D5) (type BiDi))
        (pin (num 15) (name D6) (type BiDi))
        (pin (num 16) (name D7) (type BiDi))
        (pin (num 17) (name D8) (type BiDi))
        (pin (num 18) (name D9) (type BiDi))
        (pin (num 19) (name RAW) (type unspc))
        (pin (num 20) (name GND3) (type unspc))
        (pin (num 21) (name RESET) (type input))
        (pin (num 22) (name Vcc2) (type unspc))
        (pin (num 23) (name A3) (type BiDi))
        (pin (num 24) (name A2) (type BiDi))
        (pin (num 25) (name A1) (type BiDi))
        (pin (num 26) (name A0) (type BiDi))
        (pin (num 27) (name D13) (type BiDi))
        (pin (num 28) (name D12) (type input))
        (pin (num 29) (name D11) (type BiDi))
        (pin (num 30) (name D10) (type BiDi))
        (pin (num 31) (name A4) (type input))
        (pin (num 32) (name A5) (type input))))
    (libpart (lib device) (part CP)
      (description "Polarised capacitor")
      (footprints
        (fp CP_*))
      (fields
        (field (name Reference) C)
        (field (name Value) CP))
      (pins
        (pin (num 1) (name ~) (type passive))
        (pin (num 2) (name ~) (type passive))))
    (libpart (lib conn) (part Conn_01x06)
      (description "Generic connector, single row, 01x06")
      (docs ~)
      (footprints
        (fp Connector*:*_??x*mm*)
        (fp Connector*:*1x??x*mm*)
        (fp Pin?Header?Straight?1X*)
        (fp Pin?Header?Angled?1X*)
        (fp Socket?Strip?Straight?1X*)
        (fp Socket?Strip?Angled?1X*))
      (fields
        (field (name Reference) J)
        (field (name Value) Conn_01x06))
      (pins
        (pin (num 1) (name Pin_1) (type passive))
        (pin (num 2) (name Pin_2) (type passive))
        (pin (num 3) (name Pin_3) (type passive))
        (pin (num 4) (name Pin_4) (type passive))
        (pin (num 5) (name Pin_5) (type passive))
        (pin (num 6) (name Pin_6) (type passive))))
    (libpart (lib device) (part D_Schottky)
      (description "Schottky diode")
      (footprints
        (fp TO-???*)
        (fp *SingleDiode)
        (fp *_Diode_*)
        (fp *SingleDiode*)
        (fp D_*))
      (fields
        (field (name Reference) D)
        (field (name Value) D_Schottky))
      (pins
        (pin (num 1) (name K) (type passive))
        (pin (num 2) (name A) (type passive))))
    (libpart (lib device) (part L)
      (description Inductor)
      (footprints
        (fp Choke_*)
        (fp *Coil*)
        (fp Inductor_*)
        (fp L_*))
      (fields
        (field (name Reference) L)
        (field (name Value) L))
      (pins
        (pin (num 1) (name 1) (type passive))
        (pin (num 2) (name 2) (type passive))))
    (libpart (lib lm2575-5) (part LM2575-5)
      (fields
        (field (name Reference) U)
        (field (name Value) LM2575-5))
      (pins
        (pin (num 1) (name VIN) (type input))
        (pin (num 2) (name OUTPUT) (type input))
        (pin (num 3) (name GND) (type input))
        (pin (num 4) (name FEEDBACK) (type input))
        (pin (num 5) (name ON/OFF) (type input)))))
  (libraries
    (library (logical device)
      (uri /usr/share/kicad/library/device.lib))
    (library (logical lm2575-5)
      (uri /home/arnes/workspace/roboskopcnc/pcb/step1/lm2575/lm2575-5.lib))
    (library (logical ArduProMiniTKB)
      (uri /home/arnes/workspace/roboskopcnc/pcb/step1/arduino-mini-pro/ArduProMiniTKB.lib))
    (library (logical conn)
      (uri /usr/share/kicad/library/conn.lib)))
  (nets
    (net (code 1) (name +VDC)
      (node (ref U1) (pin 1)))
    (net (code 3) (name GND)
      (node (ref U1) (pin 3))
      (node (ref U1) (pin 5))
      (node (ref C1) (pin 2))
      (node (ref D1) (pin 2))
      (node (ref C2) (pin 2)))
    (net (code 4) (name "Net-(D1-Pad1)")
      (node (ref L1) (pin 2))
      (node (ref U1) (pin 2))
      (node (ref D1) (pin 1)))
    (net (code 5) (name "Net-(C2-Pad1)")
      (node (ref C2) (pin 1))
      (node (ref U1) (pin 4))
      (node (ref L1) (pin 1)))
    (net (code 6) (name D7)
      (node (ref MCU1) (pin 16))
      (node (ref J1) (pin 6)))
    (net (code 7) (name D6)
      (node (ref J1) (pin 5))
      (node (ref MCU1) (pin 15)))
    (net (code 8) (name D5)
      (node (ref MCU1) (pin 14))
      (node (ref J1) (pin 4)))
    (net (code 9) (name D3)
      (node (ref MCU1) (pin 12))
      (node (ref J1) (pin 2)))
    (net (code 10) (name D2)
      (node (ref J1) (pin 1))
      (node (ref MCU1) (pin 11)))
    (net (code 11) (name "Net-(MCU1-Pad22)")
      (node (ref MCU1) (pin 22)))
    (net (code 12) (name "Net-(MCU1-Pad26)")
      (node (ref MCU1) (pin 26)))
    (net (code 13) (name "Net-(MCU1-Pad25)")
      (node (ref MCU1) (pin 25)))
    (net (code 14) (name "Net-(MCU1-Pad24)")
      (node (ref MCU1) (pin 24)))
    (net (code 15) (name "Net-(MCU1-Pad23)")
      (node (ref MCU1) (pin 23)))
    (net (code 16) (name D4)
      (node (ref MCU1) (pin 13))
      (node (ref J1) (pin 3)))
    (net (code 17) (name "Net-(MCU1-Pad32)")
      (node (ref MCU1) (pin 32)))
    (net (code 18) (name "Net-(MCU1-Pad17)")
      (node (ref MCU1) (pin 17)))
    (net (code 19) (name "Net-(MCU1-Pad31)")
      (node (ref MCU1) (pin 31)))
    (net (code 20) (name "Net-(MCU1-Pad21)")
      (node (ref MCU1) (pin 21)))
    (net (code 21) (name "Net-(MCU1-Pad30)")
      (node (ref MCU1) (pin 30)))
    (net (code 22) (name "Net-(MCU1-Pad20)")
      (node (ref MCU1) (pin 20)))
    (net (code 23) (name "Net-(MCU1-Pad10)")
      (node (ref MCU1) (pin 10)))
    (net (code 24) (name "Net-(MCU1-Pad9)")
      (node (ref MCU1) (pin 9)))
    (net (code 25) (name "Net-(MCU1-Pad8)")
      (node (ref MCU1) (pin 8)))
    (net (code 26) (name "Net-(C1-Pad1)")
      (node (ref C1) (pin 1)))
    (net (code 27) (name "Net-(MCU1-Pad7)")
      (node (ref MCU1) (pin 7)))
    (net (code 28) (name "Net-(MCU1-Pad29)")
      (node (ref MCU1) (pin 29)))
    (net (code 29) (name "Net-(MCU1-Pad19)")
      (node (ref MCU1) (pin 19)))
    (net (code 30) (name "Net-(MCU1-Pad28)")
      (node (ref MCU1) (pin 28)))
    (net (code 31) (name "Net-(MCU1-Pad18)")
      (node (ref MCU1) (pin 18)))
    (net (code 32) (name "Net-(MCU1-Pad27)")
      (node (ref MCU1) (pin 27)))))