<?xml version="1.0" encoding="UTF-8" standalone="no"?>
<!-- Created with Inkscape (http://www.inkscape.org/) -->

<svg
   xmlns:dc="http://purl.org/dc/elements/1.1/"
   xmlns:cc="http://creativecommons.org/ns#"
   xmlns:rdf="http://www.w3.org/1999/02/22-rdf-syntax-ns#"
   xmlns:svg="http://www.w3.org/2000/svg"
   xmlns="http://www.w3.org/2000/svg"
   xmlns:sodipodi="http://sodipodi.sourceforge.net/DTD/sodipodi-0.dtd"
   xmlns:inkscape="http://www.inkscape.org/namespaces/inkscape"
   width="210mm"
   height="297mm"
   viewBox="0 0 210 297"
   version="1.1"
   id="svg8"
   inkscape:version="0.92.1 r15371"
   sodipodi:docname="save-icon.svg">
  <defs
     id="defs2" />
  <sodipodi:namedview
     id="base"
     pagecolor="#ffffff"
     bordercolor="#666666"
     borderopacity="1.0"
     inkscape:pageopacity="0.0"
     inkscape:pageshadow="2"
     inkscape:zoom="0.35"
     inkscape:cx="181.21724"
     inkscape:cy="-184.23829"
     inkscape:document-units="mm"
     inkscape:current-layer="layer1"
     showgrid="false"
     inkscape:window-width="1920"
     inkscape:window-height="1055"
     inkscape:window-x="1920"
     inkscape:window-y="0"
     inkscape:window-maximized="1" />
  <metadata
     id="metadata5">
    <rdf:RDF>
      <cc:Work
         rdf:about="">
        <dc:format>image/svg+xml</dc:format>
        <dc:type
           rdf:resource="http://purl.org/dc/dcmitype/StillImage" />
        <dc:title></dc:title>
      </cc:Work>
    </rdf:RDF>
  </metadata>
  <g
     inkscape:label="Layer 1"
     inkscape:groupmode="layer"
     id="layer1">
    <g
       id="g4560"
       inkscape:export-filename="/home/arnes/workspace/RoboskopCnc/SingleStageMobile/res/icon/saved.png"
       inkscape:export-xdpi="36.290001"
       inkscape:export-ydpi="36.290001">
      <rect
         y="126.099"
         x="107.50865"
         height="67.185997"
         width="67.185997"
         id="rect4538"
         style="fill:none;fill-opacity:1;stroke-width:0.17664701" />
      <path
         inkscape:connector-curvature="0"
         id="path4496"
         d="m 112.05496,192.75817 c -1.65955,-0.80612 -2.84887,-1.91771 -3.70439,-3.4623 l -0.78486,-1.41699 v -28.04583 -28.04584 l 0.59969,-1.21704 c 0.76432,-1.55118 2.18833,-2.97519 3.73952,-3.73952 l 1.21704,-0.59969 23.94479,-0.066 23.94479,-0.066 1.32292,0.76137 c 2.69912,1.55342 9.23062,7.95493 11.38914,11.16248 l 0.91398,1.35817 v 24.19159 24.19158 l -0.63859,1.24797 c -0.80647,1.57602 -2.3251,3.04819 -3.85932,3.74123 -1.17319,0.52996 -1.59948,0.53773 -29.10417,0.53046 -27.17085,-0.007 -27.94193,-0.0212 -28.98054,-0.52567 z m 54.01884,-2.30549 c 0.3104,-0.25142 0.69735,-0.7172 0.8599,-1.03505 0.20648,-0.40375 0.29555,-4.72351 0.29555,-14.3333 v -13.75537 l -0.8141,-0.8141 -0.81411,-0.81411 h -24.47395 -24.47396 l -0.7734,0.7734 -0.77339,0.7734 v 14.06362 14.06362 l 0.77339,0.7734 0.7734,0.7734 24.42817,-0.006 c 22.74581,-0.005 24.46703,-0.0374 24.9925,-0.46302 z m -7.85002,-38.94714 c 1.38334,-0.98503 1.42109,-1.33077 1.27266,-11.65811 -0.14868,-10.34496 -0.17829,-10.53962 -1.69096,-11.11473 -0.39834,-0.15145 -7.72149,-0.25278 -18.26887,-0.25278 h -17.60402 l -0.89959,0.89959 -0.89958,0.89958 v 9.55996 c 0,10.25562 0.0693,10.85762 1.35384,11.75733 0.55458,0.38845 2.3799,0.43146 18.3095,0.43146 17.19189,0 17.71431,-0.0148 18.42702,-0.5223 z m -11.89661,-10.55713 c 0,-4.49295 0.0744,-8.54108 0.16536,-8.99583 l 0.16537,-0.82682 h 3.67109 3.67109 v 8.99583 8.99583 h -3.83645 -3.83646 z"
         style="fill:#ffffff;stroke-width:0.26458332;fill-opacity:1" />
    </g>
    <g
       id="g4554"
       inkscape:export-filename="/home/arnes/workspace/RoboskopCnc/SingleStageMobile/res/icon/unsaved.png"
       inkscape:export-xdpi="36.290001"
       inkscape:export-ydpi="36.290001">
      <rect
         style="fill:none;fill-opacity:1;stroke-width:0.17664701"
         id="rect4544"
         width="67.185997"
         height="67.185997"
         x="19.93977"
         y="124.69454" />
      <path
         style="fill:#e04006;stroke-width:0.26458332;fill-opacity:1"
         d="m 24.48608,191.35371 c -1.65955,-0.80612 -2.84887,-1.91771 -3.70439,-3.4623 l -0.78486,-1.41699 v -28.04583 -28.04584 l 0.59969,-1.21704 c 0.76432,-1.55118 2.18833,-2.97519 3.73952,-3.73952 l 1.21704,-0.59969 23.94479,-0.066 23.94479,-0.066 1.32292,0.76137 c 2.69912,1.55342 9.23062,7.95493 11.38914,11.16248 l 0.91398,1.35817 v 24.19159 24.19158 l -0.63859,1.24797 c -0.80647,1.57602 -2.3251,3.04819 -3.85932,3.74123 -1.17319,0.52996 -1.59948,0.53773 -29.10417,0.53046 -27.17085,-0.007 -27.94193,-0.0212 -28.98054,-0.52567 z m 54.01884,-2.30549 c 0.3104,-0.25142 0.69735,-0.7172 0.8599,-1.03505 0.20648,-0.40375 0.29555,-4.72351 0.29555,-14.3333 V 159.9245 l -0.8141,-0.8141 -0.81411,-0.81411 H 53.55821 29.08425 l -0.7734,0.7734 -0.77339,0.7734 v 14.06362 14.06362 l 0.77339,0.7734 0.7734,0.7734 24.42817,-0.006 c 22.74581,-0.005 24.46703,-0.0374 24.9925,-0.46302 z M 70.6549,150.10108 c 1.38334,-0.98503 1.42109,-1.33077 1.27266,-11.65811 -0.14868,-10.34496 -0.17829,-10.53962 -1.69096,-11.11473 -0.39834,-0.15145 -7.72149,-0.25278 -18.26887,-0.25278 H 34.36371 l -0.89959,0.89959 -0.89958,0.89958 v 9.55996 c 0,10.25562 0.0693,10.85762 1.35384,11.75733 0.55458,0.38845 2.3799,0.43146 18.3095,0.43146 17.19189,0 17.71431,-0.0148 18.42702,-0.5223 z M 58.75829,139.54395 c 0,-4.49295 0.0744,-8.54108 0.16536,-8.99583 l 0.16537,-0.82682 h 3.67109 3.67109 v 8.99583 8.99583 h -3.83645 -3.83646 z"
         id="path4546"
         inkscape:connector-curvature="0" />
    </g>
    <text
       xml:space="preserve"
       style="font-style:normal;font-weight:normal;font-size:10.58333302px;line-height:1.25;font-family:sans-serif;letter-spacing:0px;word-spacing:0px;fill:#000000;fill-opacity:1;stroke:none;stroke-width:0.26458332"
       x="204.10713"
       y="85.711311"
       id="text4564"><tspan
         sodipodi:role="line"
         id="tspan4562"
         x="204.10713"
         y="85.711311"
         style="stroke-width:0.26458332">Su altta beyaz oldugu icin gozukmuyor</tspan></text>
    <rect
       style="fill:#000000;fill-opacity:1;stroke-width:0.20716931"
       id="rect4566"
       width="32.728855"
       height="9.2490625"
       x="70.715324"
       y="213.73555"
       transform="matrix(0.70949042,-0.70471508,0.60912861,0.79307146,0,0)" />
  </g>
</svg>
