<?xml version="1.0" encoding="UTF-8" standalone="no"?>
<!-- Created with Inkscape (http://www.inkscape.org/) -->

<svg
   xmlns:dc="http://purl.org/dc/elements/1.1/"
   xmlns:cc="http://creativecommons.org/ns#"
   xmlns:rdf="http://www.w3.org/1999/02/22-rdf-syntax-ns#"
   xmlns:svg="http://www.w3.org/2000/svg"
   xmlns="http://www.w3.org/2000/svg"
   xmlns:sodipodi="http://sodipodi.sourceforge.net/DTD/sodipodi-0.dtd"
   xmlns:inkscape="http://www.inkscape.org/namespaces/inkscape"
   width="210mm"
   height="297mm"
   viewBox="0 0 210 297"
   version="1.1"
   id="svg8"
   inkscape:version="0.92.1 r15371"
   sodipodi:docname="play.svg">
  <defs
     id="defs2">
    <filter
       style="color-interpolation-filters:sRGB;"
       inkscape:label="Drop Shadow"
       id="filter4691">
      <feFlood
         flood-opacity="0.498039"
         flood-color="rgb(0,0,0)"
         result="flood"
         id="feFlood4681" />
      <feComposite
         in="flood"
         in2="SourceGraphic"
         operator="in"
         result="composite1"
         id="feComposite4683" />
      <feGaussianBlur
         in="composite1"
         stdDeviation="2"
         result="blur"
         id="feGaussianBlur4685" />
      <feOffset
         dx="1"
         dy="1"
         result="offset"
         id="feOffset4687" />
      <feComposite
         in="SourceGraphic"
         in2="offset"
         operator="over"
         result="fbSourceGraphic"
         id="feComposite4689" />
      <feColorMatrix
         result="fbSourceGraphicAlpha"
         in="fbSourceGraphic"
         values="0 0 0 -1 0 0 0 0 -1 0 0 0 0 -1 0 0 0 0 1 0"
         id="feColorMatrix4693" />
      <feFlood
         id="feFlood4695"
         flood-opacity="0.498039"
         flood-color="rgb(0,0,0)"
         result="flood"
         in="fbSourceGraphic" />
      <feComposite
         in2="fbSourceGraphic"
         id="feComposite4697"
         in="flood"
         operator="in"
         result="composite1" />
      <feGaussianBlur
         id="feGaussianBlur4699"
         in="composite1"
         stdDeviation="2"
         result="blur" />
      <feOffset
         id="feOffset4701"
         dx="1"
         dy="1"
         result="offset" />
      <feComposite
         in2="offset"
         id="feComposite4703"
         in="fbSourceGraphic"
         operator="over"
         result="composite2" />
    </filter>
  </defs>
  <sodipodi:namedview
     id="base"
     pagecolor="#ffffff"
     bordercolor="#666666"
     borderopacity="1.0"
     inkscape:pageopacity="0.0"
     inkscape:pageshadow="2"
     inkscape:zoom="0.49497475"
     inkscape:cx="189.48767"
     inkscape:cy="830.68503"
     inkscape:document-units="mm"
     inkscape:current-layer="layer1"
     showgrid="false"
     inkscape:window-width="1920"
     inkscape:window-height="1031"
     inkscape:window-x="0"
     inkscape:window-y="0"
     inkscape:window-maximized="1" />
  <metadata
     id="metadata5">
    <rdf:RDF>
      <cc:Work
         rdf:about="">
        <dc:format>image/svg+xml</dc:format>
        <dc:type
           rdf:resource="http://purl.org/dc/dcmitype/StillImage" />
        <dc:title></dc:title>
      </cc:Work>
    </rdf:RDF>
  </metadata>
  <g
     inkscape:label="Layer 1"
     inkscape:groupmode="layer"
     id="layer1">
    <g
       id="g4516"
       transform="translate(21.381562,-29.399648)"
       inkscape:export-filename="/home/arnes/workspace/RoboskopCnc/ScriptEditor/res/icon/play.png"
       inkscape:export-xdpi="15.14"
       inkscape:export-ydpi="15.14">
      <rect
         y="161.76161"
         x="28.330568"
         height="97.28611"
         width="97.28611"
         id="rect4512"
         style="fill:#ffffff;fill-opacity:1;stroke:none;stroke-width:0.26458332" />
      <path
         inkscape:connector-curvature="0"
         id="path4510"
         d="m 64.538723,295.08395 c -19.489281,-1.4987 -37.282481,-9.65706 -51.017471,-23.39207 -15.1950799,-15.19508 -23.5837,-35.44911 -23.5837,-56.94207 0,-21.49295 8.3886201,-41.74698 23.5837,-56.94207 15.19508,-15.19509 35.44912,-23.5837 56.94207,-23.5837 21.492952,0 41.746988,8.38861 56.942078,23.5837 15.19508,15.19509 23.5837,35.44912 23.5837,56.94207 0,21.49296 -8.38862,41.74699 -23.5837,56.94207 -12.70767,12.70767 -29.105049,20.74868 -46.846076,22.97254 -4.847278,0.60762 -11.357662,0.77811 -16.020601,0.41953 z m 13.965076,-62.16729 c 19.916958,-9.95841 36.212651,-18.13349 36.212651,-18.16685 0,-0.0594 -72.366978,-36.27305 -72.485708,-36.27305 -0.0332,0 -0.0604,16.32287 -0.0604,36.27305 0,19.95018 0.0272,36.27306 0.0604,36.27306 0.0332,0 16.356094,-8.14779 36.273057,-18.10621 z"
         style="fill:#2196f3;fill-opacity:1;stroke-width:0.12091019" />
    </g>
    <g
       id="g4530"
       inkscape:export-filename="/home/arnes/workspace/RoboskopCnc/ScriptEditor/res/icon/play.png"
       inkscape:export-xdpi="40.37606"
       inkscape:export-ydpi="40.37606">
      <rect
         style="fill:#ffffff;fill-opacity:1;stroke:none;stroke-width:0.26458332"
         id="rect4518"
         width="97.28611"
         height="97.28611"
         x="57.195679"
         y="-54.192169" />
      <path
         inkscape:export-ydpi="15"
         inkscape:export-xdpi="15"
         inkscape:export-filename="/home/arnes/workspace/RoboskopCnc/ScriptEditor/res/icon/play.png"
         style="fill:#21f865;fill-opacity:1;stroke-width:0.12091019"
         d="M 93.403832,79.13017 C 73.914551,77.63147 56.121351,69.47311 42.386361,55.7381 27.191281,40.54302 18.802661,20.28899 18.802661,-1.20397 c 0,-21.49295 8.38862,-41.74698 23.5837,-56.94207 15.19508,-15.19509 35.44912,-23.5837 56.94207,-23.5837 21.492949,0 41.746989,8.38861 56.942079,23.5837 15.19508,15.19509 23.5837,35.44912 23.5837,56.94207 0,21.49296 -8.38862,41.74699 -23.5837,56.94207 -12.70767,12.70767 -29.10505,20.74868 -46.84608,22.97254 -4.84727,0.60762 -11.357659,0.77811 -16.020598,0.41953 z M 107.36891,16.96288 c 19.91696,-9.95841 36.21265,-18.13349 36.21265,-18.16685 0,-0.0594 -72.366979,-36.27305 -72.485709,-36.27305 -0.0332,0 -0.0604,16.32287 -0.0604,36.27305 0,19.95018 0.0272,36.27306 0.0604,36.27306 0.0332,0 16.356094,-8.14779 36.273059,-18.10621 z"
         id="path4520"
         inkscape:connector-curvature="0" />
    </g>
  </g>
</svg>
