EESchema Schematic File Version 2
LIBS:power
LIBS:device
LIBS:switches
LIBS:relays
LIBS:transistors
LIBS:conn
LIBS:linear
LIBS:regul
LIBS:74xx
LIBS:cmos4000
LIBS:adc-dac
LIBS:memory
LIBS:xilinx
LIBS:microcontrollers
LIBS:dsp
LIBS:microchip
LIBS:analog_switches
LIBS:motorola
LIBS:texas
LIBS:intel
LIBS:audio
LIBS:interface
LIBS:digital-audio
LIBS:philips
LIBS:display
LIBS:cypress
LIBS:siliconi
LIBS:opto
LIBS:atmel
LIBS:contrib
LIBS:valves
LIBS:shield_arduino
LIBS:pololu_a4988
LIBS:mstepper-cache
EELAYER 25 0
EELAYER END
$Descr A4 11693 8268
encoding utf-8
Sheet 1 1
Title ""
Date ""
Rev ""
Comp ""
Comment1 ""
Comment2 ""
Comment3 ""
Comment4 ""
$EndDescr
$Comp
L ARDUINO_NANO SH1
U 1 1 5AA22C40
P 6800 3100
F 0 "SH1" H 6775 2025 60  0000 C CNN
F 1 "ARDUINO_NANO" H 6775 4150 60  0000 C CNN
F 2 "SHIELD_ARDUINO:ARDUINO_NANO_2_CONTOUR_ELL" H 5875 2500 60  0001 C CNN
F 3 "" H 5875 2500 60  0000 C CNN
	1    6800 3100
	1    0    0    -1  
$EndComp
$Comp
L POLOLU_A4988 U1
U 1 1 5AA22F97
P 5100 3100
F 0 "U1" H 5100 3550 60  0000 C CNN
F 1 "POLOLU_A4988" V 5100 3100 50  0000 C CNN
F 2 "a4988:a4988" H 5100 3100 60  0001 C CNN
F 3 "" H 5100 3100 60  0001 C CNN
	1    5100 3100
	1    0    0    -1  
$EndComp
$Comp
L +5V #PWR01
U 1 1 5AA230AD
P 7450 2625
F 0 "#PWR01" H 7450 2475 50  0001 C CNN
F 1 "+5V" V 7450 2825 50  0000 C CNN
F 2 "" H 7450 2625 50  0001 C CNN
F 3 "" H 7450 2625 50  0001 C CNN
	1    7450 2625
	0    1    1    0   
$EndComp
$Comp
L GND #PWR02
U 1 1 5AA2337F
P 6150 2625
F 0 "#PWR02" H 6150 2375 50  0001 C CNN
F 1 "GND" V 6150 2425 50  0000 C CNN
F 2 "" H 6150 2625 50  0001 C CNN
F 3 "" H 6150 2625 50  0001 C CNN
	1    6150 2625
	0    1    1    0   
$EndComp
$Comp
L +5V #PWR03
U 1 1 5AA23DDD
P 4500 2850
F 0 "#PWR03" H 4500 2700 50  0001 C CNN
F 1 "+5V" V 4500 3050 50  0000 C CNN
F 2 "" H 4500 2850 50  0001 C CNN
F 3 "" H 4500 2850 50  0001 C CNN
	1    4500 2850
	0    -1   -1   0   
$EndComp
$Comp
L +5V #PWR04
U 1 1 5AA2429F
P 8625 2650
F 0 "#PWR04" H 8625 2500 50  0001 C CNN
F 1 "+5V" V 8625 2850 50  0000 C CNN
F 2 "" H 8625 2650 50  0001 C CNN
F 3 "" H 8625 2650 50  0001 C CNN
	1    8625 2650
	1    0    0    -1  
$EndComp
$Comp
L +12V #PWR05
U 1 1 5AA245CE
P 8825 2650
F 0 "#PWR05" H 8825 2500 50  0001 C CNN
F 1 "+12V" V 8825 2875 50  0000 C CNN
F 2 "" H 8825 2650 50  0001 C CNN
F 3 "" H 8825 2650 50  0001 C CNN
	1    8825 2650
	1    0    0    -1  
$EndComp
$Comp
L GND #PWR06
U 1 1 5AA246D3
P 8725 2650
F 0 "#PWR06" H 8725 2400 50  0001 C CNN
F 1 "GND" V 8725 2450 50  0000 C CNN
F 2 "" H 8725 2650 50  0001 C CNN
F 3 "" H 8725 2650 50  0001 C CNN
	1    8725 2650
	-1   0    0    1   
$EndComp
$Comp
L GND #PWR07
U 1 1 5AA2470E
P 8525 2650
F 0 "#PWR07" H 8525 2400 50  0001 C CNN
F 1 "GND" V 8525 2450 50  0000 C CNN
F 2 "" H 8525 2650 50  0001 C CNN
F 3 "" H 8525 2650 50  0001 C CNN
	1    8525 2650
	-1   0    0    1   
$EndComp
$Comp
L GND #PWR08
U 1 1 5AA247AF
P 4500 2750
F 0 "#PWR08" H 4500 2500 50  0001 C CNN
F 1 "GND" V 4500 2550 50  0000 C CNN
F 2 "" H 4500 2750 50  0001 C CNN
F 3 "" H 4500 2750 50  0001 C CNN
	1    4500 2750
	0    1    1    0   
$EndComp
Text GLabel 4500 2950 0    39   Input ~ 0
M1B
Text GLabel 4500 3050 0    39   Input ~ 0
M1A
Text GLabel 4500 3150 0    39   Input ~ 0
M2A
Text GLabel 4500 3250 0    39   Input ~ 0
M2B
Text GLabel 8625 3525 3    39   Input ~ 0
M2B
Text GLabel 8525 3525 3    39   Input ~ 0
M2A
Text GLabel 8825 3525 3    39   Input ~ 0
M1A
Text GLabel 8725 3525 3    39   Input ~ 0
M1B
$Comp
L Conn_01x04 J4
U 1 1 5AA2541A
P 8750 2050
F 0 "J4" H 8750 2250 50  0000 C CNN
F 1 "UART-BT" H 8750 1750 50  0000 C CNN
F 2 "Pin_Headers:Pin_Header_Straight_1x04" H 8750 2050 50  0001 C CNN
F 3 "" H 8750 2050 50  0001 C CNN
	1    8750 2050
	0    1    1    0   
$EndComp
Text GLabel 9450 1850 1    39   Input ~ 0
SCL
Text GLabel 6150 2250 0    39   Input ~ 0
TX
Text GLabel 6150 2375 0    39   Input ~ 0
RX
Text GLabel 8750 1850 1    39   Input ~ 0
RX
Text GLabel 8850 1850 1    39   Input ~ 0
TX
Text GLabel 9350 1850 1    39   Input ~ 0
SDA
$Comp
L +1V35 #PWR09
U 1 1 5AB97C71
P 4500 3450
F 0 "#PWR09" H 4500 3300 50  0001 C CNN
F 1 "+1V35" V 4500 3675 50  0000 C CNN
F 2 "" H 4500 3450 50  0000 C CNN
F 3 "" H 4500 3450 50  0000 C CNN
	1    4500 3450
	0    -1   -1   0   
$EndComp
$Comp
L +12V #PWR010
U 1 1 5AB97E69
P 7450 2250
F 0 "#PWR010" H 7450 2100 50  0001 C CNN
F 1 "+12V" V 7450 2475 50  0000 C CNN
F 2 "" H 7450 2250 50  0001 C CNN
F 3 "" H 7450 2250 50  0001 C CNN
	1    7450 2250
	0    1    1    0   
$EndComp
$Comp
L CONN_01X02 P1
U 1 1 5AB981A6
P 9225 2850
F 0 "P1" H 9225 3000 50  0000 C CNN
F 1 "VMOT" V 9325 2850 50  0000 C CNN
F 2 "apex-screw-terminals:3.5mm-2-terminal" H 9225 2850 50  0001 C CNN
F 3 "" H 9225 2850 50  0000 C CNN
	1    9225 2850
	0    1    1    0   
$EndComp
$Comp
L +1V35 #PWR011
U 1 1 5AB9822A
P 9175 2650
F 0 "#PWR011" H 9175 2500 50  0001 C CNN
F 1 "+1V35" V 9175 2875 50  0000 C CNN
F 2 "" H 9175 2650 50  0000 C CNN
F 3 "" H 9175 2650 50  0000 C CNN
	1    9175 2650
	1    0    0    -1  
$EndComp
$Comp
L CONN_01X03 P2
U 1 1 5AB986BF
P 9375 3575
F 0 "P2" H 9375 3775 50  0000 C CNN
F 1 "EndSwitch" V 9475 3575 50  0000 C CNN
F 2 "Pin_Headers:Pin_Header_Straight_1x03" H 9375 3575 50  0001 C CNN
F 3 "" H 9375 3575 50  0000 C CNN
	1    9375 3575
	0    1    1    0   
$EndComp
$Comp
L +5V #PWR012
U 1 1 5AB9884E
P 9375 3375
F 0 "#PWR012" H 9375 3225 50  0001 C CNN
F 1 "+5V" V 9375 3575 50  0000 C CNN
F 2 "" H 9375 3375 50  0001 C CNN
F 3 "" H 9375 3375 50  0001 C CNN
	1    9375 3375
	1    0    0    -1  
$EndComp
$Comp
L GND #PWR013
U 1 1 5AB9886E
P 9275 3375
F 0 "#PWR013" H 9275 3125 50  0001 C CNN
F 1 "GND" V 9275 3175 50  0000 C CNN
F 2 "" H 9275 3375 50  0001 C CNN
F 3 "" H 9275 3375 50  0001 C CNN
	1    9275 3375
	-1   0    0    1   
$EndComp
Text GLabel 6150 3500 0    39   Input ~ 0
ENDS
Text GLabel 9475 3375 1    39   Input ~ 0
ENDS
$Comp
L +5V #PWR014
U 1 1 5AB98DAA
P 8550 1850
F 0 "#PWR014" H 8550 1700 50  0001 C CNN
F 1 "+5V" V 8550 2050 50  0000 C CNN
F 2 "" H 8550 1850 50  0001 C CNN
F 3 "" H 8550 1850 50  0001 C CNN
	1    8550 1850
	1    0    0    -1  
$EndComp
$Comp
L GND #PWR015
U 1 1 5AB98DCD
P 8650 1850
F 0 "#PWR015" H 8650 1600 50  0001 C CNN
F 1 "GND" V 8650 1650 50  0000 C CNN
F 2 "" H 8650 1850 50  0001 C CNN
F 3 "" H 8650 1850 50  0001 C CNN
	1    8650 1850
	-1   0    0    1   
$EndComp
Text GLabel 7775 3125 2    39   Input ~ 0
SDA
Text GLabel 7775 3000 2    39   Input ~ 0
SCL
Wire Wire Line
	6150 2750 5700 2750
Wire Wire Line
	6150 2875 5775 2875
Wire Wire Line
	5775 2875 5775 2850
Wire Wire Line
	5775 2850 5700 2850
Wire Wire Line
	5700 3150 6025 3150
Wire Wire Line
	6025 3150 6025 3000
Wire Wire Line
	6025 3000 6150 3000
Wire Wire Line
	5700 3250 6050 3250
Wire Wire Line
	6050 3250 6050 3125
Wire Wire Line
	6050 3125 6150 3125
Wire Wire Line
	5700 3350 6075 3350
Wire Wire Line
	6075 3350 6075 3250
Wire Wire Line
	6075 3250 6150 3250
Wire Wire Line
	5700 3450 6125 3450
Wire Wire Line
	6125 3450 6125 3375
Wire Wire Line
	6125 3375 6150 3375
Wire Wire Line
	5700 3050 5700 2950
$Comp
L +5V #PWR016
U 1 1 5ABCF93A
P 7700 2700
F 0 "#PWR016" H 7700 2550 50  0001 C CNN
F 1 "+5V" V 7700 2900 50  0000 C CNN
F 2 "" H 7700 2700 50  0001 C CNN
F 3 "" H 7700 2700 50  0001 C CNN
	1    7700 2700
	0    1    1    0   
$EndComp
Wire Wire Line
	7450 3000 7775 3000
Connection ~ 7700 3000
$Comp
L R_Small R1
U 1 1 5ABCFD9F
P 7700 2850
F 0 "R1" H 7730 2870 50  0000 L CNN
F 1 "4k7" H 7730 2810 50  0000 L CNN
F 2 "Resistors_SMD:R_0805" H 7700 2850 50  0001 C CNN
F 3 "" H 7700 2850 50  0000 C CNN
	1    7700 2850
	1    0    0    -1  
$EndComp
Wire Wire Line
	7700 2700 7700 2750
Wire Wire Line
	7700 2950 7700 3000
Wire Wire Line
	7775 3125 7450 3125
$Comp
L R_Small R2
U 1 1 5ABD0177
P 7700 3300
F 0 "R2" H 7730 3320 50  0000 L CNN
F 1 "4k7" H 7730 3260 50  0000 L CNN
F 2 "Resistors_SMD:R_0805" H 7700 3300 50  0001 C CNN
F 3 "" H 7700 3300 50  0000 C CNN
	1    7700 3300
	1    0    0    -1  
$EndComp
Wire Wire Line
	7700 3200 7700 3125
Connection ~ 7700 3125
$Comp
L +5V #PWR017
U 1 1 5ABD01EE
P 7700 3450
F 0 "#PWR017" H 7700 3300 50  0001 C CNN
F 1 "+5V" V 7700 3650 50  0000 C CNN
F 2 "" H 7700 3450 50  0001 C CNN
F 3 "" H 7700 3450 50  0001 C CNN
	1    7700 3450
	0    1    1    0   
$EndComp
Wire Wire Line
	7700 3450 7700 3400
$Comp
L CONN_01X02 P4
U 1 1 5ABE15F8
P 8575 2850
F 0 "P4" H 8350 2625 50  0000 C CNN
F 1 "5V-IN-OUT" H 8625 2650 50  0000 C CNN
F 2 "Pin_Headers:Pin_Header_Straight_1x02" H 8575 2850 50  0001 C CNN
F 3 "" H 8575 2850 50  0000 C CNN
	1    8575 2850
	0    1    1    0   
$EndComp
$Comp
L CONN_01X02 P5
U 1 1 5ABE1706
P 8775 2850
F 0 "P5" H 8675 3000 50  0000 C CNN
F 1 "VIN" H 8800 3000 50  0000 C CNN
F 2 "apex-screw-terminals:3.5mm-2-terminal" H 8775 2850 50  0001 C CNN
F 3 "" H 8775 2850 50  0000 C CNN
	1    8775 2850
	0    1    1    0   
$EndComp
$Comp
L CONN_01X02 P6
U 1 1 5ABE1A65
P 8775 3325
F 0 "P6" H 8775 3475 50  0000 C CNN
F 1 "MB" H 8825 3125 50  0000 C CNN
F 2 "apex-screw-terminals:3.5mm-2-terminal" H 8775 3325 50  0001 C CNN
F 3 "" H 8775 3325 50  0000 C CNN
	1    8775 3325
	0    -1   -1   0   
$EndComp
$Comp
L CONN_01X02 P7
U 1 1 5ABE1B45
P 8575 3325
F 0 "P7" H 8500 3475 50  0000 C CNN
F 1 "MA" H 8600 3475 50  0000 C CNN
F 2 "apex-screw-terminals:3.5mm-2-terminal" H 8575 3325 50  0001 C CNN
F 3 "" H 8575 3325 50  0000 C CNN
	1    8575 3325
	0    -1   -1   0   
$EndComp
Text GLabel 4500 3350 0    39   Input ~ 0
MGND
Text GLabel 9275 2650 1    39   Input ~ 0
MGND
$Comp
L CONN_01X03 P3
U 1 1 5AC02B6D
P 9350 2050
F 0 "P3" H 9350 2250 50  0000 C CNN
F 1 "I2C" V 9450 2050 50  0000 C CNN
F 2 "Pin_Headers:Pin_Header_Straight_1x03" H 9350 2050 50  0001 C CNN
F 3 "" H 9350 2050 50  0000 C CNN
	1    9350 2050
	0    1    1    0   
$EndComp
$Comp
L GND #PWR018
U 1 1 5AC02CCA
P 9250 1850
F 0 "#PWR018" H 9250 1600 50  0001 C CNN
F 1 "GND" V 9250 1650 50  0000 C CNN
F 2 "" H 9250 1850 50  0001 C CNN
F 3 "" H 9250 1850 50  0001 C CNN
	1    9250 1850
	-1   0    0    1   
$EndComp
$EndSCHEMATC
